term1_id	term2_id
95	54
5919	54
20954	59
20965	59
20954	60
20966	60
30	83
211	87
211	88
39108	95
44234	98
28176	106
107	108
28176	109
28176	110
112	113
112	114
112	115
112	118
111	145
14405	158
160	159
14170	159
36988	162
4882	164
6078	185
6078	186
6078	187
6078	191
15845	195
33361	218
33361	219
33361	220
33361	221
33361	222
10826	245
4212	246
16985	246
4212	247
16985	247
15845	252
4788	261
5987	263
5987	264
5987	265
5987	266
5987	267
4783	268
413	271
21269	294
310	308
4716	309
4716	310
315	316
322	323
322	324
4735	342
7934	347
7934	348
349	350
349	351
360	361
358	362
358	363
359	364
2897	366
271	382
410	383
410	384
271	385
23572	385
23572	386
271	387
23573	387
411	402
5314	403
413	406
410	407
413	409
413	410
23573	412
4882	414
4737	435
4649	452
140	454
593	455
380	456
473	458
477	458
474	459
477	459
1565	468
1566	468
1565	469
473	472
474	475
477	475
477	476
477	478
474	479
5296	480
20965	481
473	483
474	488
473	491
485	495
498	495
484	496
486	496
486	497
498	497
4751	514
5990	525
5990	528
28157	528
5256	529
5236	531
5230	532
5236	533
5236	534
6357	544
5248	545
23316	546
5228	547
5256	548
6357	550
23315	552
5874	559
565	560
565	561
566	562
562	563
567	193
567	568
565	569
567	569
565	318
567	570
565	571
566	574
572	574
566	575
566	577
581	582
564	583
564	587
591	592
595	593
596	594
257	595
255	596
597	598
600	599
601	602
605	603
606	604
253	605
257	610
610	611
255	612
255	613
609	614
609	615
609	616
253	623
8365	627
8365	628
8365	629
594	630
594	631
4751	649
26508	658
13246	659
13245	663
28151	664
31434	666
665	667
665	668
23274	670
120	121
665	671
28151	672
4789	673
268	675
4786	677
593	687
593	688
594	689
594	690
5314	716
5287	832
2882	833
2873	834
5288	835
5297	836
2888	841
844	845
844	846
844	847
844	848
846	849
846	850
5288	886
5297	887
5310	888
846	889
2871	894
21406	895
21406	896
5294	898
5289	903
5298	904
847	905
5311	906
6393	939
940	941
940	942
938	943
6395	944
949	950
949	951
945	952
945	953
956	957
956	958
940	960
960	961
18388	961
938	962
962	963
4884	966
14424	968
4709	972
26718	980
28079	980
6113	987
4212	1000
19872	1002
26552	1007
1020	1021
1020	1022
7016	1026
7016	1027
1027	1028
1026	1029
1026	1030
1026	1031
26250	1031
1026	1032
1032	1033
1032	1034
26253	1034
1032	1035
26253	1035
1026	1036
7016	1037
7016	1038
7016	1039
26622	1040
26622	1041
15548	1047
1404	1055
1007	1056
26552	1057
27814	1069
27816	1070
27817	1071
27815	1072
981	1121
39307	1126
30493	1130
6128	1144
5336	1146
44331	1168
6202	1173
6231	1174
6316	1175
26404	1176
23464	1177
23464	1178
26405	1179
19734	1180
1174	1181
9003	1181
1181	1182
1180	1183
1181	1184
15143	1195
1638	1199
1638	1200
1206	1204
19083	1205
617	1207
26621	1211
26761	1213
29731	1214
36655	1216
1213	1217
1217	1218
26617	1221
9373	1222
21606	1223
30860	1223
1223	1224
26712	1231
24881	1234
20823	1235
20824	1236
14111	1237
24881	1238
21624	1244
20776	1245
1247	1248
33783	1288
1170	1290
1290	1291
1291	1292
1292	1293
1292	1294
1291	1295
1295	1296
1295	1297
1290	1298
1298	1299
1298	1300
1290	1301
36127	1302
10741	1304
1306	1305
21606	1306
13719	1307
9362	1308
9362	1309
36280	1310
5802	1311
35602	1311
24889	1346
14005	1347
23727	1351
1351	1352
30824	1355
1170	1358
1356	1358
1356	1359
26879	1360
5799	1388
15145	1392
37369	1402
36970	1403
34137	1404
1404	1405
20041	1406
31176	1407
26746	1408
1055	1414
30174	1417
2478	1435
27782	1436
2430	1437
1437	1440
1442	1443
1442	1444
1442	1445
1441	1446
1441	1447
1441	1448
2726	1453
1452	1454
2726	1455
2726	1456
1492	1457
1450	1458
1458	1459
1458	1460
1450	1461
1461	1462
1451	1463
1451	1464
1438	1465
14000	1465
1438	1466
2493	1466
30251	1467
1441	1468
1438	1470
1439	1471
1439	1472
2430	1473
1474	1476
1479	1480
1479	1481
1479	1482
1452	1483
1487	1488
1487	1489
1492	1491
1498	1500
1498	1501
1499	1502
1499	1503
1121	1509
28079	1520
1520	1521
14785	1522
1523	1524
1525	1526
1524	1527
1522	1528
1526	1529
30716	1530
21607	1531
1121	1533
6170	1534
6170	1535
1537	1536
1139	1537
1537	1538
21607	1545
1545	1546
26618	1546
21145	1550
29942	1550
4850	1552
10125	1559
16261	1595
1597	1598
14806	1629
10126	1632
1636	1637
1636	1638
1636	1639
1969	1655
1793	1660
1830	1663
7995	1687
7997	1688
1689	1690
14107	1694
35796	1695
1695	1696
1695	1697
5840	1712
5839	1718
20807	1744
23373	1745
23374	1746
14179	1775
1778	1779
1778	1780
1384	1785
14179	1788
1789	1790
1959	1790
1789	1791
1959	1791
1830	1793
21228	1807
14213	1809
1810	1811
24864	1812
1331	1813
21161	1814
5840	1816
1816	1823
1816	1824
1826	1827
1830	1828
1830	1829
10512	1830
1835	1853
1917	1854
1855	1861
1835	1864
1834	1875
1993	1881
5802	1882
1798	1890
1800	1891
13044	1899
1900	1902
1900	1903
1905	1906
1847	1941
1877	1941
1847	1942
26136	1942
26136	1943
26135	1945
1845	1950
26135	1950
1846	1951
1923	1951
1848	1952
1944	1952
1848	1955
1954	1955
1969	1956
1963	1965
14107	1970
5840	1971
5839	1972
1975	1976
1975	1977
2971	1979
2971	1980
5839	1981
1842	1982
1840	1984
1975	1990
1802	1991
1975	1992
21855	2001
21855	2002
2025	2003
2025	2004
2010	2005
2010	2006
2009	2010
14213	2017
10810	2019
2130	2020
14213	2021
2969	2128
2021	2129
31636	2224
2224	2225
2224	2226
13050	2227
2227	2228
2227	2229
13051	2230
2230	2231
2230	2232
6687	2261
6685	2264
1249	2350
21607	2378
19736	2380
26253	2408
26252	2409
26251	2410
6331	2412
27785	2414
1437	2424
1465	2425
1465	2426
1442	2428
1441	2429
2430	2431
2432	2434
2433	2438
2438	2439
2434	2440
2438	2441
2434	2442
2438	2443
2434	2444
2433	2445
2432	2446
2432	2447
2433	2448
1452	2452
1452	2453
1493	2456
1456	2464
2473	2465
1456	2466
2473	2468
1455	2470
1455	2471
2457	2472
2473	2474
2478	2476
2478	2493
2478	2494
2499	2496
2498	2497
2500	2506
2502	2507
2515	2516
6201	2533
30730	2534
2540	2536
2535	2538
2535	2540
2535	2541
2535	2543
26440	2546
2412	2549
2412	2550
18822	2550
26591	2550
2550	2551
31176	2553
31112	2554
2558	2555
30235	2556
30235	2557
2412	2558
2552	2559
2552	2560
2546	2562
6331	2564
2565	2566
2564	2567
2568	2569
2568	2570
2568	2571
2571	2572
2571	2573
2573	2574
2572	2575
6331	2577
2577	2586
2583	2587
2578	2588
2585	2589
2581	2590
2584	2591
2579	2592
2582	2593
2580	2594
2586	2595
2587	2596
2588	2597
2589	2598
2590	2599
2591	2600
2592	2601
2593	2602
2594	2603
6331	2604
2679	2605
2595	2606
30234	2607
30793	2608
2611	2609
2412	2610
2604	2610
6331	2611
6331	2612
2412	2613
2612	2613
2613	2614
2638	2615
2637	2616
2616	2617
2615	2618
2619	2623
2620	2624
2621	2625
2622	2626
2621	2627
2622	2628
2639	2640
2640	2641
2642	2643
2643	2644
2645	2646
2646	2647
2412	2648
30242	2648
2613	2649
2621	2650
2622	2651
29707	2652
2652	2653
2652	2654
30242	2655
30792	2655
2586	2656
31113	2660
30202	2663
2662	2665
30730	2670
34262	2674
2673	2675
2673	2676
2673	2677
2673	2678
2610	2679
2679	2680
2610	2681
2558	2682
2586	2683
2610	2684
2412	2685
2612	2686
2638	2687
2637	2689
2690	2694
2691	2695
2692	2696
2686	2697
2577	2698
2412	2699
2699	2700
2699	2701
2412	2702
29716	2706
2553	2707
2553	2708
2553	2709
2553	2710
14940	2714
14940	2715
14940	2716
14940	2717
18822	2718
2718	2719
2719	2720
2720	2721
2720	2722
2720	2724
2715	2727
2714	2728
2716	2729
2717	2730
2715	2731
2714	2732
2716	2733
2717	2734
14212	2739
2739	2740
2740	2741
34062	2742
1128	2743
2748	2747
29864	2749
2749	2750
30659	2755
16314	2760
2762	2763
2762	2764
2765	2766
2766	2767
1138	2768
35357	2769
1138	2770
1138	2771
2770	2772
35357	2773
35357	2774
2774	2775
2770	2776
2774	2777
35370	2778
20789	2784
2784	2785
6202	2786
1522	2787
2787	2788
2786	2789
2791	2790
2791	2792
2792	2793
2793	2796
2794	2797
2794	2798
2795	2799
2795	2800
2796	2801
2796	2802
2791	2803
2806	2807
2809	2808
30716	2808
26619	2809
2809	2810
29866	2811
29866	2812
1530	2813
1530	2814
21607	2815
26618	2816
26618	2817
30175	2818
2838	2819
1521	2820
2821	2822
2822	2823
2822	2824
2827	2826
2822	2827
2824	2828
2828	2829
2829	2831
2827	2833
29854	2833
2823	2834
2836	2835
2823	2836
2834	2837
2818	2838
2836	2839
2836	2840
2827	2841
2827	2842
2897	2898
4593	4557
4212	4558
36845	4561
36849	4567
36854	4568
4593	4579
4593	4580
4593	4594
7666	4598
21381	4604
4597	4605
4597	4606
4597	4607
9336	4610
4628	4612
20876	4614
4610	4615
20876	4616
4610	4617
18194	4628
15845	4629
22128	4633
22128	4637
4632	4635
10930	4639
10930	4643
10930	4646
10930	4647
10930	4648
10930	4649
4672	4673
4672	4674
4672	4675
4672	4676
4672	4677
4672	4678
255	4684
255	4685
591	4690
4673	4691
4673	4692
600	4693
606	4695
25004	2865
15845	4698
15196	4710
4708	4711
4711	4712
4711	4713
4711	4714
4711	4715
309	4717
309	4720
4705	4721
4705	4722
4723	4724
4723	4725
4725	4726
4725	4727
3383	4728
9336	4731
4738	4740
9336	4745
14797	4747
4751	4749
20876	4751
37024	4751
9336	4757
10126	4785
4789	4788
10126	4789
4786	4790
4786	4791
4786	4792
4786	4793
4786	4794
14794	4795
673	4796
15127	297
13882	4804
512	4805
4822	4819
4822	4820
14037	4821
10125	4822
14037	4822
10125	4823
4823	4824
10126	4828
10126	4829
4789	4830
23419	1189
10125	4835
10125	4836
33732	71
4212	4838
4212	4839
4212	4841
4212	4842
4212	4843
4212	4844
4212	4845
4212	4846
4212	4847
4212	4848
4212	4849
9336	4853
21849	4864
9421	4865
21849	4867
4870	4871
21849	4872
35952	2939
4880	4881
4880	4882
33732	4885
336	4888
4723	4912
6419	4976
7457	5036
21392	5060
21392	5061
21392	5062
21392	5063
5058	5069
17065	5214
5210	5215
5210	5216
5210	5217
5210	5218
5210	5221
5231	5232
5231	5233
5231	5234
5231	5235
5236	5240
5236	5241
5236	5244
5228	5253
14254	5255
94	5266
4652	2924
15385	5274
5277	5282
5277	5283
8816	5287
5287	5288
5287	2888
5287	5289
2871	5294
2871	5295
2871	2890
30	5296
2873	5297
2873	5298
2873	2892
271	5303
2882	5310
2882	5311
2882	2894
39138	5316
5316	5317
5316	5318
5316	5319
8816	5320
8816	5330
33235	5330
30	5331
33236	5331
33239	5333
8816	5335
5335	5336
5335	5337
5335	5338
5335	5340
7497	5397
5398	5399
5399	5400
20861	5408
5501	5502
5526	5527
5526	5528
5526	5529
5526	5530
5883	5537
5537	5538
30833	5559
21021	5631
5679	5680
5682	5681
5686	5687
33273	5705
26186	5757
9210	5768
18401	5782
3101	5797
5797	5798
3101	4475
28473	4475
3101	4470
5802	5803
5802	5804
36131	5811
21624	5815
5820	5821
5820	5822
1138	5823
5820	5823
5820	5824
5824	5825
20922	5826
1904	5842
33281	5854
14893	5870
5874	5875
8612	5875
8612	5887
2963	5890
24975	5894
8612	5900
8612	5901
8612	5903
5999	5920
6000	5921
6001	5922
6002	5923
6003	5924
6005	5925
5999	5926
632	5927
95	5929
5999	5930
6002	5931
8807	5936
95	5940
5941	5942
95	5943
95	5944
95	5946
5947	4471
5947	5949
28149	5961
39108	5962
5999	5971
5973	5977
23447	5988
5988	5989
5986	5990
26313	5999
6134	6002
6009	4118
13993	4118
28534	4118
4170	6023
33367	6028
6028	6031
4175	6032
4175	6033
6068	6070
24133	6072
6071	6073
6073	6074
20311	6094
6093	6096
6098	6099
6098	6100
6098	6101
6102	6103
6110	6111
6232	6114
13245	6118
6118	6119
6119	6120
6119	6121
6118	6123
6123	6124
6125	6126
6125	6127
26553	6128
6128	6129
6128	6130
14307	6130
6128	6131
6131	6132
6128	6133
26516	6135
14639	6136
26516	6137
6134	6138
14640	6139
14640	6141
26516	6142
6135	6143
6142	6143
6142	6145
14640	6146
6146	6147
6146	6148
6148	6149
26622	6150
6150	6151
6802	6156
6156	6157
6157	6158
6157	6160
6447	6162
6168	6170
6168	6171
6168	6172
6168	6173
6168	6174
6117	6181
6182	6183
6187	6188
6187	6189
6189	6190
6189	6191
6187	6192
6192	6193
6192	6194
6187	6195
6195	6196
6195	6197
6182	6198
8361	6203
6249	6204
8361	6205
8361	6206
8361	6207
8361	6208
8361	6209
19045	6210
19051	6211
19053	6212
19053	6213
19052	6214
6117	6220
1169	6221
1169	6222
6222	6223
18803	6224
6223	6225
6222	6226
6222	6227
9359	6233
13586	6237
26712	6238
26712	6240
26681	6241
31362	6241
6241	6242
6241	6243
31362	6244
31362	6245
6232	6247
6232	6248
6248	6249
6248	6250
6248	6251
30146	6251
6232	6252
6232	6253
6255	6256
6255	6257
6255	6258
19035	6262
6262	6263
1623	6264
6262	6266
1623	6267
1210	6269
26594	6270
26582	6271
26596	6272
26582	6273
31323	6273
26636	6274
33784	6274
6275	6276
6275	6277
6275	6278
6281	6282
18976	6283
18980	6284
18977	6285
1213	6286
23742	6287
26176	6288
26178	6289
20782	6290
26180	6290
23743	6291
21134	6292
18977	6293
18982	6294
18983	6296
6300	6298
7018	6299
6296	6300
18983	6301
18981	6302
6302	6304
18979	6305
18979	6306
18978	6307
18978	6308
18978	6311
6312	6313
6312	6314
6312	6315
1180	6317
6318	6319
6318	6320
6318	6321
6322	6323
1179	6324
1179	6325
6322	6326
26594	6326
1623	6328
6840	6330
34138	6331
1620	6332
1176	6333
21304	6334
21065	6339
26642	6341
30360	6342
9563	6343
21312	6344
1620	6346
1620	6349
6351	6352
6356	6357
6356	6358
6117	6361
12379	6362
6362	6363
6362	6364
12378	6365
6365	6366
6117	6367
12378	6369
1621	6378
6275	6384
6374	6384
26720	6384
6384	6385
6117	6386
6117	6390
6389	6390
6392	6395
6393	6400
6416	6421
14806	6422
20776	2985
34156	6423
34156	6424
6445	6444
13245	6445
20922	6463
5833	6466
36990	6486
26680	6509
6446	6520
6446	6521
6254	6523
18977	6526
6386	6530
6253	6533
14640	6537
4212	6543
14794	6557
6151	6566
10734	6566
6479	6678
5802	6690
4751	6704
1169	6712
257	6730
4212	6732
16678	6736
10125	6738
6143	6750
4212	4591
4212	6774
6142	6780
8615	6783
20778	6791
6118	6799
1623	6807
18972	6808
10504	6818
23440	6840
13858	6841
4412	6953
13882	6965
4804	6970
4804	6971
22824	6973
1213	7014
24783	7015
24782	7016
6300	7017
6300	7018
21134	7023
6183	7024
37010	7030
20205	7048
3370	7053
5035	7451
5035	7452
6747	7630
7499	7632
7499	7633
7662	7641
14303	7665
14303	7668
7676	7672
334	7704
7702	7714
7702	7728
33251	7756
26515	7763
7804	7805
14627	7810
7810	7811
7810	7812
14627	7813
7809	7814
7809	7816
29741	7894
21270	7896
7894	7898
7898	7899
7929	7903
18152	7908
7913	7916
7954	7920
7921	7922
7909	7925
7910	7926
7901	7928
7921	7930
7894	7933
7919	7934
7894	7935
7893	7936
7939	7940
7941	7942
7947	7943
7947	7944
7947	7945
6134	7946
7947	7946
7939	7947
7947	7948
7947	7949
13245	7950
7888	7952
7924	7955
7954	7956
10126	7957
7897	7958
7904	7959
7932	7960
7901	7961
8373	7970
20922	7976
26865	6176
7910	8029
21275	8029
7905	8030
7905	8031
8032	8043
8016	8077
359	8078
33173	8107
33176	8109
33025	8111
33175	8115
33137	8118
16679	8128
33130	8129
33139	8130
13008	8138
13008	8139
13008	7890
13008	8146
13008	8149
7909	8152
7910	8153
6117	8160
26388	8162
8169	8168
8200	8194
8203	8195
315	8198
8513	8200
6117	8203
7954	8206
4723	8207
8208	8209
35571	8211
8222	8212
8219	8220
23170	8222
8240	8224
26876	8225
8003	8227
33253	8228
8055	8229
8240	8230
26876	8230
8055	8231
33203	8232
16115	8233
8226	8236
33177	8238
8222	8240
8240	8241
8242	8243
8316	8244
6177	6186
8160	8250
26551	6229
8346	8259
26667	8263
21160	8274
6974	8275
8197	8282
39108	8282
4751	8285
10732	8287
23476	8287
8346	8290
26545	8293
8162	8302
8315	8303
8303	8304
8316	8305
8314	8306
36287	8307
8312	8308
8308	8309
8313	8310
8310	8311
8275	8317
26388	8320
8372	8325
26438	8325
26516	8353
20778	8359
8080	8363
8365	8366
8293	8370
26436	8371
26439	8372
8428	8378
35760	8382
8458	8407
8371	8408
35760	8408
8410	8411
8409	8412
8162	8424
8371	8426
26546	8426
8372	8427
26546	8427
26545	8428
8428	8429
8428	8430
8371	8433
8371	8437
6229	8439
8306	8440
8382	8445
35826	8445
8445	8446
26660	8447
26489	8448
26502	8449
26491	8450
26493	8451
26495	8452
26567	8456
26566	8457
8372	8458
8726	8458
5775	8461
10561	8499
26438	8507
7941	8509
6229	8519
26660	8520
8780	8522
26876	8541
7945	8556
8222	8557
8138	8565
13008	8566
7941	8567
26388	8573
33475	8574
26477	8586
8160	8587
26625	8587
26671	8593
8789	8594
8270	8610
33141	8611
26551	8616
45294	8628
8080	8633
7954	8641
8398	8653
8457	8663
45468	8664
8668	8669
8668	8670
7913	8671
8325	8690
8346	8691
33259	8695
26388	8696
8372	8698
8325	8710
8458	8728
8407	8729
26388	8780
8781	8782
8782	8783
8726	8789
8407	8790
8790	8791
8789	8792
8789	8793
26439	8797
26436	8798
8588	8799
8270	8800
5960	8806
39108	8807
33178	8825
26436	8828
26667	8829
8222	8832
6037	8917
8270	8919
26836	8925
10672	8936
13991	8947
8611	8956
26521	8959
26508	8960
35355	8967
8162	8990
6231	9003
8069	9018
8170	9019
8176	9020
8178	9021
20922	9027
7755	9037
5257	9042
5990	9043
6357	9046
23316	9047
5990	9108
5257	9109
5990	9110
5257	9111
5257	9112
5990	9113
5990	9114
5257	9115
5990	9116
5257	9117
6284	9118
26747	9118
6285	9119
26747	9119
6283	9120
26747	9120
26287	9121
26289	9122
26290	9123
26292	9124
5986	9125
23316	9127
23315	9128
16347	9133
5427	9134
2812	9175
29867	9175
26438	9199
13214	9211
9212	9213
16795	9263
938	9313
9327	9328
9327	9329
15846	9337
4766	9338
4777	9339
14141	9340
14140	9341
26721	9344
26722	9345
6248	9346
9346	9347
20778	9351
9354	9353
26712	9358
9358	9359
9359	9360
9358	9361
1307	9362
1307	9363
1305	9364
9362	9365
9362	9366
9365	9367
9363	9368
6232	9369
26599	9369
21606	9370
26773	9371
26773	9372
9374	9373
9370	9375
9374	9375
9375	9376
9375	9377
6253	9378
9378	9385
6248	9386
6113	9396
16134	9410
15552	9422
9499	9433
10875	9466
10875	9467
9466	9468
9467	9469
9481	9478
9478	9482
9478	9483
6342	9498
21933	9499
21933	9500
9500	9501
9501	9502
9501	9503
21933	9504
21933	9508
2414	9516
9515	9516
9515	9523
22028	9536
9446	9542
21933	9562
9563	9564
9567	9565
9567	9566
21933	9567
9591	9592
9591	9593
9591	9594
27722	10177
16842	10251
7700	10360
10470	10471
10471	10472
10470	10473
10470	10474
10482	10481
13200	10481
10482	10483
7968	10488
39333	4035
6429	10504
10507	10508
10504	10510
20102	10510
6111	10524
37400	10524
10524	4476
10524	10525
10524	10526
20198	10624
37428	10624
10627	10625
26527	10627
37428	4472
26527	3100
6242	10632
6510	10634
6510	10635
30360	10637
10637	10638
36286	10668
5420	10678
5420	10679
5534	10680
20782	10727
6251	10728
6002	10730
23475	10733
6150	10734
1213	10740
10741	10742
10743	10744
1623	10745
6384	10745
10745	10746
13200	10750
23435	10752
10730	10753
5926	10754
19050	10756
6523	10765
18194	10768
1826	10808
619	10813
7447	10814
10125	10816
4735	10826
334	10827
1044	10830
4723	10857
4212	10865
10874	10875
5902	10899
5902	10901
10900	10902
10900	10903
10900	10904
10930	10932
5427	10934
4850	10935
4212	11238
4593	11243
4723	11356
334	11359
4723	11397
5707	11408
9590	11622
4531	11719
15082	11725
6168	12372
6416	12375
6416	12376
6117	12378
6117	12379
12405	12391
12420	12421
12420	12422
12420	12423
12423	12424
24928	12435
12432	12437
12432	12440
12440	12441
12440	12442
12442	12443
12440	12444
12432	12447
12432	12448
12432	6630
12450	12451
12450	12452
12450	12453
4212	12538
33153	12572
6009	12574
12574	12575
12574	12576
27788	12578
10443	12600
17158	12627
7499	12636
7662	12692
998	12711
33258	12767
7458	12970
10444	13008
10444	13009
4805	13084
4805	13085
10883	13112
10883	13113
5902	4473
15833	13171
4723	13210
9210	13214
11526	13223
13243	13244
21850	13275
13278	13279
13278	13280
13280	13281
23475	13282
13282	13283
13282	13284
13282	13285
13291	13292
13282	13297
13282	13302
13282	13303
13309	13308
6232	13310
1308	13311
1308	13312
13312	13313
13312	13314
13799	13315
13799	13316
6249	13317
17310	13317
1307	13318
6248	13319
13319	13320
13320	13321
13320	13322
13326	13323
13319	13324
13319	13325
13319	13326
13337	13327
13336	13328
13331	13329
30398	13330
13326	13331
13332	13334
13332	13335
13325	13336
13338	13339
13719	13341
14829	13342
14829	13343
14829	13344
14827	13345
14827	13346
13345	13347
13345	13348
13842	13349
13571	13350
13571	13351
13346	13352
13346	13353
14829	13355
13803	13356
14844	13356
13841	13357
13841	13358
14829	13359
6248	13360
13364	13361
14844	13364
13360	13365
13588	13366
13588	13370
13588	13373
14829	13384
13384	13385
13384	13386
13434	13387
14829	13387
13359	13388
13384	13388
13385	13389
13388	13389
13386	13390
13388	13390
13359	13391
13387	13391
13357	13392
13384	13392
13385	13393
13392	13393
13386	13394
13392	13394
13357	13395
13387	13395
13358	13396
13384	13396
13385	13397
13396	13397
13386	13398
13396	13398
13358	13399
13387	13399
6251	13400
13400	13401
14829	13401
13355	13402
13402	13403
13402	13404
13360	13405
13369	13406
13406	13407
13406	13408
13369	13409
13354	13410
13410	13411
13410	13412
13354	13413
13374	13414
13374	13415
13415	13416
13415	13417
13370	13418
13418	13419
13418	13420
13370	13421
13372	13422
13372	13423
13423	13424
13423	13425
13375	13426
13375	13427
13426	13428
13426	13429
13366	13430
13430	13431
13430	13432
13366	13433
6248	13434
13362	13435
13435	13436
13435	13437
13362	13438
13363	13439
13363	13440
13439	13441
13439	13442
13368	13443
13368	13444
13444	13445
13444	13446
13367	13447
13367	13448
13447	13449
13447	13450
13373	13451
13373	13452
13452	13453
13452	13454
13371	13455
13371	13456
13456	13457
13456	13458
13376	13459
13459	13460
13459	13461
13403	13462
13377	13463
13463	13464
13463	13465
13378	13466
13466	13467
13466	13468
13379	13469
13469	13470
13469	13471
13380	13472
13472	13473
13472	13474
13381	13475
13475	13476
13475	13477
13346	13478
13400	13478
13382	13479
13479	13480
13479	13481
13383	13482
6232	13483
13482	13484
13482	13485
13400	13486
13503	13487
13503	13488
13503	13489
13483	13490
13489	13491
13504	13491
13491	13492
13505	13492
13491	13493
13506	13493
13489	13494
13507	13494
13487	13495
13504	13495
13495	13496
13505	13496
13495	13497
13506	13497
13487	13498
13507	13498
13488	13499
13507	13499
13488	13500
13504	13500
13500	13501
13506	13501
13500	13502
13505	13502
13358	13503
13396	13504
13503	13504
13504	13505
13504	13506
13399	13507
13503	13507
13492	13509
13502	13510
13357	13511
13392	13512
13511	13512
13393	13513
13512	13513
13395	13514
13511	13514
13492	13515
13505	13516
13496	13517
13496	13518
13492	13519
13502	13520
13359	13521
13388	13522
13521	13522
13389	13523
13522	13523
13390	13524
13522	13524
13391	13525
13521	13525
13357	13526
13392	13527
13526	13527
13393	13528
13527	13528
13394	13529
13527	13529
13395	13530
13526	13530
13359	13531
13531	13532
13531	13533
13531	13534
13531	13535
13531	13536
13531	13537
6251	13538
13357	13539
14844	13540
13358	13541
13358	13542
13358	13543
13358	13544
13357	13548
13359	13549
13359	13550
13359	13551
13359	13552
13357	13553
13357	13556
13359	13556
13357	13557
13357	13560
13505	13561
13353	13562
13562	13563
13562	13564
13345	13565
14827	13566
14828	13567
13348	13568
13566	13569
13566	13570
13352	13571
13566	13571
13345	13572
13566	13572
13562	13573
13566	13573
13566	13574
13566	13575
13599	13576
13792	13577
13562	13578
13330	13579
13330	13580
13329	13581
13584	13583
13586	13585
8359	13586
8359	13587
6248	13588
26525	13588
6253	13589
26525	13589
13590	13597
13590	13598
13345	13599
13791	13600
13782	13601
13791	13601
13675	13602
13675	13603
13607	13608
13607	13609
13607	13610
1138	13611
13619	13611
13611	13612
13611	13613
13606	13617
13617	13618
13606	13619
13619	13620
13620	13622
13619	13623
13606	13624
13624	13625
13624	13626
13624	13627
13695	13632
13692	13633
13695	13636
13628	13637
13628	13638
13636	13639
13636	13640
13632	13641
13632	13642
13635	13643
13635	13644
13635	13645
13645	13646
13645	13647
13648	13649
13648	13650
14827	13651
13816	13653
13651	13654
13816	13655
13664	13657
13698	13658
13345	13659
13566	13659
13659	13660
13663	13664
13676	13665
13676	13667
13651	13673
14827	13675
14827	13676
13676	13677
13677	13678
13677	13679
13677	13680
13683	13681
13700	13682
13676	13683
13702	13684
13702	13685
13702	13686
14827	13687
13683	13688
14827	13689
13690	13691
13690	13692
13577	13693
13693	13694
13693	13695
13696	13697
13696	13698
14827	13699
14827	13700
13700	13701
13702	13703
13667	13704
13666	13705
13341	13707
13341	13708
13707	13709
13707	13710
13321	13711
13321	13712
13321	13713
13322	13714
13321	13715
13329	13716
13330	13717
13322	13718
6232	13719
21606	13719
13721	13720
13332	13721
13721	13722
13718	13723
13328	13724
13325	13725
13725	13726
13744	13741
13741	13742
13745	13743
13736	13747
13736	13748
13737	13749
13750	13751
13750	13752
13753	13754
13753	13755
6248	13757
13757	13758
13758	13759
13346	13764
13319	13769
13761	13770
13770	13771
13770	13772
13770	13773
13770	13774
13770	13775
13770	13776
13770	13777
13346	13782
13675	13782
13659	13783
13353	13784
13345	13786
19033	13786
13345	13787
19033	13787
13787	13788
13787	13789
13347	13790
13352	13791
13346	13792
13792	13793
1305	13794
1305	13795
9364	13796
1309	13797
1309	13798
1309	13799
13315	13800
1306	13801
30712	13801
13803	13804
13803	13805
13540	13808
13540	13809
13707	13810
9364	13811
6232	13812
9386	13813
9345	13814
9385	13815
13353	13816
13352	13817
13817	13819
13817	13820
13817	13821
13822	13823
13665	13827
13702	13829
13702	13830
13651	13831
13577	13832
13346	13833
13355	13838
13355	13839
13355	13840
14829	13841
13346	13842
5916	13845
20993	13847
21257	13848
21362	13853
16342	13855
16343	13856
26	13857
6412	13860
21317	13862
26516	13865
22593	9261
26745	13871
13872	13877
29743	13878
29743	13879
13882	13881
512	13882
13883	200
13883	202
21811	13884
21811	13885
23618	5058
8817	13972
13959	13975
13977	13980
13978	13983
2403	2405
14034	14035
14036	14037
15554	14038
15143	14046
14051	14052
2941	14060
4708	14072
4723	14073
7965	14086
14087	14089
14088	14090
14088	14091
8031	14094
21275	14098
7964	14104
7964	14106
14107	14109
14303	14122
26514	14126
14126	4855
14599	14128
14135	4857
14133	4859
14137	4859
14601	14131
14600	4763
9338	14132
14604	14133
14607	14134
9341	14135
14127	14136
4853	14137
9336	4770
9336	4771
5537	14148
2985	14165
26712	14178
27590	14200
27591	14201
27586	14202
27587	14204
22115	14212
17903	14214
20080	14216
6117	14230
6117	14231
29701	14232
9529	14233
9529	14234
14254	14255
14254	14256
981	14274
14303	14280
22736	14289
33732	14302
10874	14304
21063	14305
14315	14316
30363	14316
19033	14317
6146	14362
14235	14377
7676	14398
10672	14400
10672	14401
36375	14403
39285	14404
32415	14443
14794	14444
14794	14445
14447	14448
20966	14452
33579	14468
4212	14483
24889	14490
24888	14491
4175	14527
6177	14536
1169	14537
4770	4773
4761	14597
23322	14598
14138	14599
4764	14600
14139	14601
4781	14602
4771	4774
13298	14603
23619	14604
23620	14605
23621	14606
6486	14607
22785	14608
8208	14612
14619	14623
14620	14623
14620	14624
14619	14625
14621	14625
7809	14627
26516	14636
6135	14639
26516	14640
6135	14641
14640	14641
14640	14642
14640	14646
14640	14647
6137	14648
26516	14650
6157	14652
6135	14653
6135	14655
6125	14656
6125	14658
6135	14659
6134	14660
1127	14780
30251	14785
1206	14789
10125	14794
4753	14797
606	14801
14801	14802
4212	14803
19033	14805
4632	14821
255	14823
6251	14827
6251	14828
6251	14829
9336	14831
14831	14832
14831	14833
22111	14837
33506	14837
16143	14840
257	14842
33407	14843
6251	14844
13707	14844
7888	14857
31780	14859
36848	14860
4212	14861
4689	14885
21391	14892
18407	14893
20234	14895
10126	14905
4212	14912
5986	14913
14914	14915
14914	14916
672	14918
672	14919
5960	14921
5988	14923
14926	14927
14938	14939
19035	14939
29818	14939
14938	14940
19033	14940
250	14945
14971	14973
14971	14974
8553	14975
8553	14976
1403	14991
26743	14991
8160	14997
4617	15000
15006	15007
21440	15008
21440	15009
21790	15010
15011	15012
15011	15013
15014	15015
15014	15016
16013	15025
15049	2406
15049	15050
632	15053
15069	15068
15073	15069
14535	15071
14535	15072
14535	15073
15082	15081
365	15083
26680	15094
5532	15099
5532	15100
14797	15101
15101	15102
4751	15106
26551	15108
9330	15117
4751	15120
162	15121
4611	15122
7668	15123
4738	15124
8259	15125
8259	15126
8260	15127
8260	15128
36772	15129
36772	15130
7668	15131
7668	15132
15131	15133
15131	15134
7668	15135
15132	15136
15132	15137
15143	15147
15145	15148
14046	15149
1392	15150
15062	15151
592	15153
14535	15179
6357	15183
22123	15189
15010	15191
8365	15193
4708	15195
4706	15197
4614	15199
4735	15201
15083	15202
15010	15203
8365	15204
4708	15205
4706	15206
4614	15207
14414	15212
250	15213
15212	15213
20872	15241
7915	15243
7914	15245
8079	15247
8080	15249
21275	15251
318	15271
4593	15283
14212	15312
15552	15318
5263	4652
158	15387
4751	15389
18301	15395
16055	15396
687	15398
591	15403
28139	15405
978	15406
9336	15406
4852	15411
14172	15412
4851	15413
4882	15445
4881	15446
978	15447
21884	15448
6805	15452
4783	15474
15845	15477
15477	15480
15479	15482
15477	15483
15479	15485
15483	15486
15485	15488
15483	15489
15485	15491
15480	15492
15482	15494
15480	15495
15482	15497
673	15498
592	15499
21652	15501
10524	15511
33032	15543
120	15551
14037	15552
15552	15553
14037	15554
7964	15555
10662	15716
10662	15728
8079	15764
7897	15765
4732	15768
4733	15769
4732	15772
4733	15773
15083	15779
597	15799
4835	15807
4610	15831
4705	15832
21790	15833
15833	15834
8301	15835
15833	15836
8301	15837
15765	15838
15841	15843
7964	15844
15846	15847
21790	15848
4758	15849
6453	15851
4212	15865
25	15903
15547	15957
14905	15976
14913	15977
5778	15978
15212	15979
23445	15980
15778	15982
14967	15986
16010	16012
21381	16014
16013	16015
16013	16018
4884	16019
21381	16026
16036	16028
16036	16029
4884	16032
315	16043
5964	16043
5964	16045
15451	16046
16052	16054
17065	16056
571	16074
571	16075
16107	16109
16107	16110
16108	16111
16108	16112
8226	16115
7919	16137
16137	16138
16137	16139
13814	16141
13815	16142
21192	16143
13814	16144
13815	16145
36655	16235
16241	16242
4728	16259
16261	16260
16260	16266
10125	16272
14172	16273
14794	16277
4706	16312
21145	16313
26849	16313
16313	16314
664	16344
18401	16345
1223	16360
39138	16378
16899	16411
16970	16412
15849	16413
4734	16416
360	16417
1195	16418
4768	16419
13040	16420
14403	16421
16421	16422
21763	16422
606	16626
19035	16636
21621	16637
33788	16663
16663	16664
14403	16667
22732	16674
14173	16743
15769	16775
26510	16817
13283	16822
10875	16823
10875	16824
16829	16830
16881	16884
7888	16900
16900	16901
4880	16905
13295	16906
25038	16909
4767	16910
5883	16912
16911	16913
16903	16914
8208	16915
16915	16916
8209	16917
8209	16918
4756	16919
16920	16921
16817	16954
21143	16966
23322	16966
13284	16967
14400	16972
15299	16976
23603	16978
23603	16979
243	16981
243	16982
16980	16983
16980	16984
33164	17012
22801	17013
8032	17063
14402	17073
22785	17074
22785	17075
22785	17076
10930	17082
14828	17084
1537	17087
13282	17094
5887	17097
29700	17097
38838	17120
7015	17132
17138	17139
8612	17168
17169	17172
17172	17174
17172	17175
17173	17177
17173	17178
17176	17179
17179	17181
17179	17182
17180	17183
17180	17184
17185	17186
17185	17187
608	17308
13719	17309
17309	17310
593	17356
5220	17371
10482	17387
30984	17401
8033	17417
5883	17418
5887	17419
5887	17421
22182	17446
22181	17449
14408	17457
5236	17490
23476	17577
300	17762
13295	17792
14140	17852
422	17853
8208	17865
18301	17884
31435	17884
5927	17888
5927	17889
5929	17890
5929	17891
28055	17892
28055	17893
4751	17901
4750	17902
17903	17904
32415	18019
13245	18088
28168	18088
18088	18089
23397	18135
23397	18136
23397	18137
4593	18153
35944	18164
35944	18172
35944	18176
14619	18183
33089	18190
15845	18194
5290	18196
15044	18197
384	18198
32415	18203
16899	18217
4737	18218
8365	18219
7901	18220
18220	18221
9342	18225
4735	18243
4783	18245
14619	18250
14619	18251
60	18256
59	18257
60	18257
21220	18260
16920	18261
13290	18262
4758	18263
21205	18286
21143	18287
13284	18288
360	18289
19997	18290
74	18291
5877	18296
21149	18298
591	18299
591	18300
28154	18302
37010	18302
13283	18382
6486	18383
6357	18409
5918	18416
6357	18421
18457	18456
154	18517
154	18518
15143	18525
15143	18526
15143	18527
15143	18528
4771	18555
29734	18558
2509	18739
606	18744
606	18751
4723	18761
4610	18767
18767	18768
5875	18769
4212	18770
4212	18772
6255	18776
6255	18777
21849	18778
4672	18786
26811	18789
26811	18790
21021	18791
6809	18792
18800	18801
18801	18802
24891	18803
6168	18808
6168	18809
6168	18810
6168	18811
18811	18812
18811	18813
18813	18814
18811	18815
6168	18816
6168	18817
6168	18818
6168	18819
6331	18822
26597	18822
6331	18823
18826	18824
18826	18825
6331	18826
6374	18837
26720	18837
6374	18838
26720	18838
18838	18839
18839	18840
18973	18841
18972	18842
33198	18844
33198	18845
18843	18846
7680	18850
10672	18851
6131	18856
18856	18857
18858	18859
18837	18860
18926	18863
16739	18867
26749	18870
29997	18871
26817	18878
26750	18873
17144	18903
17145	18904
17143	18905
17142	18906
17141	18907
17140	18908
26765	18910
30268	18911
19002	18912
6255	18916
6255	18917
6278	18925
18926	18927
8160	18930
1620	18931
6338	18931
18931	18932
19090	18946
19090	18947
18952	18951
6117	18952
1169	18954
1621	18957
6248	18957
18959	8553
20922	18962
18963	18964
6255	18965
6117	18975
18978	18984
18983	18985
18981	18986
18978	18988
2804	18994
6799	18995
6799	18996
19059	19002
6840	19025
6370	19026
18978	19026
26545	19029
19033	19034
6255	19040
18959	19041
18959	19042
18959	19043
18959	19044
6248	19046
6251	19047
19046	19047
18870	19048
6182	19051
30146	19051
36002	19052
6182	19054
19052	19055
19054	19056
6807	19057
6117	19059
6274	19062
18983	19075
19075	19076
19075	19077
20776	19080
19081	19082
6300	19083
19083	19084
19083	19085
1205	19086
19083	19087
35703	19088
6068	19099
6069	19099
6069	19100
6404	19155
5285	19156
6404	19157
5285	19158
2207	19181
23397	19182
32786	19197
1057	19201
21275	19208
29732	19209
36775	19210
36777	19211
20872	19212
7915	19213
3101	19219
13345	19222
6201	19223
14938	19227
1026	19229
26552	19232
19232	19233
26552	19234
4470	19251
3101	19252
1129	19260
2743	19260
1129	19261
33976	19261
4972	19286
19288	19292
6232	19303
16439	19304
28428	19309
19151	19312
30809	19324
33893	19325
2743	19326
20452	19336
21219	19337
21219	19338
21218	19339
21218	19340
33658	19362
14107	19363
33656	19364
13574	19367
19378	19379
1355	19382
22444	19389
4212	19390
14010	19397
26594	19404
33159	19414
4733	19417
19079	19418
26480	19429
26893	19434
26910	19435
26930	19436
19434	19437
19435	19438
19436	19439
19443	19444
19872	19445
19446	19447
5883	19453
6479	19462
33157	19481
33158	19482
17289	19491
7680	19493
1213	19494
20802	19502
20806	19503
21773	19506
21773	19507
5909	19509
13550	19519
13550	19520
19520	19521
19520	19522
19522	19523
22824	19524
33161	19529
19710	19530
33141	19531
20470	19533
20469	19536
1055	19537
1288	19544
1128	19545
33968	19556
14317	19558
19558	19559
26516	19560
255	19565
29779	19566
2483	19567
2489	19568
1142	19592
1127	19593
26582	19593
21134	19594
29891	19595
29890	19596
29891	19597
33957	19598
9175	19601
14218	19603
14215	19604
19603	19605
19603	19606
28570	19623
28576	19624
29997	19626
19626	19628
21351	19628
2812	19629
14399	19630
1404	19634
26849	19637
19652	19653
19652	19654
19652	19657
19653	19658
19657	19658
19654	19659
19657	19659
19655	19660
19656	19661
6342	19662
30234	19669
34313	19673
26285	19711
5431	19723
1175	19734
19739	19737
19736	19739
29997	19740
30172	19740
10482	19743
17387	19744
19743	19744
6304	19050
16915	19759
19764	19765
19764	19766
18871	19767
14318	18877
5299	19775
14306	19779
19617	19782
21352	19809
31434	19835
31434	19836
6118	19839
32134	19875
20922	19915
19779	19923
15871	19930
19938	19939
31434	19956
31434	19957
31434	19958
255	19968
19985	19992
14793	20025
15985	20025
6331	20040
1405	20041
30835	20042
18822	20044
20052	20053
15069	20095
15179	20095
33411	20098
16711	20099
16712	20100
16713	20101
23475	20109
14036	20113
5210	20122
23228	20124
15017	20125
14154	20129
14972	20138
20141	20152
20141	20154
36773	20155
45204	20183
37400	20197
18388	20205
32134	20206
20207	20212
28245	20212
8770	20213
20208	20214
28245	20215
19054	20216
4751	20233
35389	20235
4751	20244
20245	20247
20246	20248
20245	20249
20246	20250
27790	20263
20265	20266
14175	20279
14174	20280
24860	20281
19671	20334
20342	20349
39443	20351
19960	20359
33160	20360
36959	20361
36957	20362
33163	20363
36955	20364
19753	20393
19763	20410
43578	20414
20033	20423
20032	20424
33171	20427
45219	20428
33166	20444
4212	20445
20460	20453
20457	20454
20457	20455
33895	20455
20468	20456
33893	20456
20456	20457
20469	20457
26804	20458
20462	20459
19534	20460
26804	20461
19535	20462
26804	20463
26804	20464
26804	20465
26804	20466
26804	20467
26804	20468
20468	20469
20468	20470
26804	20471
20471	20472
33893	20472
28430	20499
20498	20518
12407	20591
12407	20592
12407	20593
22729	20629
12434	20630
12434	20631
12434	20632
12407	20637
24987	20665
12451	20670
20748	20680
12374	20691
6416	20692
6177	20702
1576	20710
6002	20723
4212	20746
16433	20754
1217	1220
1220	20769
7013	20777
20778	20780
1213	20782
21658	20788
6202	20789
6123	20793
1282	20803
16446	20804
16444	20805
16454	20808
16440	20809
16464	20811
16472	20822
5256	20853
7913	20872
9336	20876
16443	20923
16463	20924
16465	20925
16466	20926
16467	20927
16468	20928
16469	20929
16445	20930
16447	20931
16448	20932
16449	20933
16450	20934
16451	20935
16453	20936
16455	20937
16456	20938
16457	20939
16458	20940
16452	20941
14413	20943
32414	20944
20776	20946
16435	20953
30	20954
30	20965
30	20966
19053	20995
7985	21016
6117	21021
6416	21023
12374	21024
20776	21061
12374	21073
4751	21084
26188	21117
24768	21134
1221	21135
21324	21136
22110	21144
21144	21145
26848	21145
21144	21146
21144	21147
10495	21162
24667	21169
16471	21173
8190	21187
26680	21191
4593	21208
21220	21221
21225	21226
1216	21248
6162	21252
7798	21254
26830	21261
26830	21262
26830	21264
10125	21265
21265	21266
21265	21267
7954	21268
4723	21269
7919	21270
7955	21271
21268	21272
7901	21273
21273	21274
4712	21276
4712	21277
6098	21279
13979	21282
8274	21291
8274	21292
24788	21295
24788	21296
1213	21298
21298	21299
21299	21300
21299	21301
8360	21304
21304	21305
30868	21311
21311	21312
21312	21313
14806	21314
8615	21316
1026	21318
1038	21320
1038	21321
1221	21325
21324	21326
6162	21332
6371	21333
21137	21334
7965	21335
30240	21336
4722	21337
14318	21351
36990	21352
7700	21356
11406	21358
27734	21364
27734	21365
14173	21382
5059	21390
21397	21396
4806	21404
14173	21437
21437	21438
24669	21577
4212	21616
20209	21621
14036	21628
12539	21633
6118	21638
14843	21641
20709	21645
20709	21646
20709	21647
23447	21652
23448	21653
6447	21672
13246	21676
16343	21676
6479	21694
21892	21706
17371	21712
5335	21718
540	21722
23315	21723
1139	21731
1139	21732
21735	21737
5779	21752
30117	21756
7666	21758
22785	21760
22204	21761
22785	21762
14403	21763
14403	21764
3383	21768
21621	21769
21621	21770
21192	21781
21773	21782
21773	21783
21782	21784
26831	21807
7954	21811
4582	21814
8226	21829
30287	21839
4723	21847
1897	21855
1896	21860
1895	21864
1374	21868
6409	21872
26186	21876
21734	21880
4884	21884
26832	21892
26833	21893
24864	21897
21899	21900
21898	21904
21905	21906
4212	21915
33191	21931
33193	21932
12980	21984
21999	22000
22002	22001
22007	22009
26768	22011
5058	22015
22027	22029
31432	22031
4593	22037
4593	22040
4751	22067
18388	22081
20922	22101
30363	22111
22111	22112
22113	22114
22115	22116
22118	22119
22118	22120
22118	22121
22118	22122
253	22124
22127	22125
22128	22126
22124	22127
22123	22128
18388	22146
22128	22151
22159	22155
21834	22177
21834	22179
12380	22180
12380	22182
22185	22186
22185	22187
22188	22189
22188	22190
22192	22193
22193	22194
22194	22195
22193	22196
22193	22197
22193	22198
22198	22199
22198	22200
22198	22201
22192	22203
39285	22204
155	22212
511	22213
24789	22226
24789	22227
13305	22229
22882	22230
35807	22231
35811	22232
35810	22233
23220	22363
7748	22364
22364	22365
328	22440
322	22441
26249	22442
26248	22443
32791	22444
25029	22445
33361	22545
21186	22547
17447	22592
20748	22601
14365	22617
14365	22618
17447	22656
13277	22657
22660	22661
22662	22663
22666	22667
17448	22668
22666	22668
22669	22670
22671	22672
22673	22674
22675	22676
17448	22679
22678	22679
22684	22685
22687	22688
17452	22690
22690	22691
4610	22695
17448	22699
22699	22700
22701	22703
22714	22716
22715	22717
22785	22723
21621	22724
21621	22725
22720	22730
21367	22742
15127	22762
4708	22766
14403	22773
22778	22779
13040	22787
13282	22792
35712	22800
8308	22805
21763	22806
21763	22807
8932	22808
13852	22809
35523	22810
8310	22812
26582	22813
9056	22814
9374	22815
6650	22816
21659	22817
34254	22818
1121	22819
6733	22820
20836	22820
31271	22823
14780	22825
22849	22850
16678	22861
17447	22865
22668	22866
4546	22871
14365	22881
14933	22894
3761	22895
21789	22896
12390	22897
289	22898
2965	22899
4596	22900
4667	22901
4609	22902
3413	22903
4817	22904
4757	22905
4745	22906
15298	22907
7895	22908
7923	22909
7962	22910
3429	22911
21216	22912
4159	4743
4731	22913
4878	22914
7671	22915
4620	22916
3765	22917
21792	22918
2939	22919
4885	22920
2942	22921
4785	22922
4629	22923
4698	22924
15831	22925
252	22926
15832	22927
23500	22928
14406	22929
71	22931
7670	22933
14302	22934
21593	22935
4599	22936
7668	23042
4617	23083
4617	23084
4617	14937
4617	23085
4617	23086
35602	23126
12448	14079
19910	23133
26846	23140
21149	23159
15010	23163
22625	23166
6300	23177
10900	23179
23181	23182
23181	23183
8553	23200
28225	23214
7748	23219
7748	23220
7677	23221
4212	23239
32297	23239
39027	23258
23260	23261
23260	23262
12432	23263
31434	23274
23277	23278
23277	23279
14253	23289
5887	23294
5210	23318
6254	23348
5537	23352
5537	23353
5537	23354
5900	23359
17170	23359
17871	23364
14213	23368
16881	23371
16882	23372
20802	23373
20806	23374
4212	23401
23412	23413
5887	23420
39107	23435
6117	23440
6370	23440
5986	23447
5994	23448
8390	23450
21191	23459
14152	23464
1178	23465
23464	23466
23475	23477
23476	23478
4185	23483
21850	23484
16432	23487
29756	23494
36991	23507
14232	23510
23547	23549
23548	23550
23547	4719
23548	23551
4719	23552
23551	23553
23549	23554
23550	23555
23549	23556
23550	23557
32297	23559
32297	23561
32297	23563
32297	23565
23560	23566
23561	23567
23560	23568
23561	23569
26849	23580
12584	23595
20769	23597
24769	23598
20782	23601
4212	23606
11281	23611
16438	23634
16439	23635
16437	23636
10888	23716
30868	23726
2565	23727
6177	23728
6156	23729
25029	23731
1621	23732
23742	23740
6287	23741
23743	23744
26761	23745
1220	23747
26516	23755
23757	23758
1361	23773
6291	23779
16459	23802
16460	23803
16461	23804
16462	23805
16470	23830
6168	24001
16864	24403
12769	24571
7068	24643
6384	24766
24766	24767
27818	24772
617	24773
24889	24781
24888	24782
24889	24783
21294	24786
21294	24788
24768	24789
12464	24830
12464	24831
6699	24846
4728	6699
6699	24847
30716	24851
6117	24888
6117	24889
6223	24891
6222	24892
1169	24893
26617	24894
1213	24895
10733	24903
6162	24904
334	24908
1359	24909
12432	12434
12405	24936
20673	24951
12440	24954
24987	24961
6630	24976
7789	24977
12441	24983
12447	24983
12405	24984
24977	24985
12405	24991
12441	24992
6630	24999
6148	25024
6148	25025
6255	25026
21205	25039
13290	25040
7902	25041
15765	25042
5736	25070
334	9836
26135	25121
6251	26164
6013	26169
26176	26177
26178	26179
26180	26181
26761	26182
21021	26187
6370	26190
6420	26204
24889	26213
24888	26214
6293	26216
6279	26217
6841	26223
26516	26227
6125	26228
6123	26229
26516	26230
6125	26231
6125	26232
6118	26233
10743	26233
6134	26234
6125	26235
14659	26236
9344	26237
20921	6785
23748	23751
23749	23753
16436	26263
4212	26267
4593	26268
26279	26280
26286	26281
26286	26283
26280	26284
26279	26285
26280	26286
26285	26286
5793	26289
26304	26290
19711	26291
5784	26293
26293	26294
35337	26294
26279	26296
26279	26297
26279	26298
26279	26299
7917	26303
7918	26303
7917	26305
7917	26306
7918	26306
7918	26307
7918	26308
7918	26309
26313	26314
29743	26314
4753	26316
6128	26319
8313	26340
26340	26341
26340	26342
26343	26344
3101	26351
26279	26353
8588	26354
14316	26359
559	26360
1826	26377
7947	26386
31587	26387
8513	26388
26388	26389
26390	26391
26391	26392
26392	26393
26393	26394
26394	26395
26394	26399
26391	26403
6322	26404
1176	26405
26404	26410
26411	26412
26412	26413
26413	26414
26414	26415
26415	26416
26415	26420
26412	26424
26432	26427
26433	26428
26434	26429
8550	26430
8573	26431
8549	26435
13880	26436
26440	26441
26441	26442
26442	26443
26443	26444
26444	26445
26444	26449
26441	26453
6316	26454
6322	26454
6231	26455
6322	26455
5903	26460
26461	26462
26462	26463
26463	26464
26464	26465
26465	26466
26465	26470
26462	26474
8270	26477
8270	26478
8270	26479
26507	26480
26505	26481
26504	26482
26506	26483
26477	26484
26480	26485
26481	26486
26482	26487
26483	26488
26484	26489
26501	26490
26486	26491
26486	26492
26487	26493
26487	26494
26488	26495
26488	26496
26478	26497
26479	26497
26497	26498
26497	26499
26501	26499
26479	26500
26479	26501
26485	26502
26485	26503
14152	26508
26508	26509
26480	26518
26480	26519
19429	26520
26485	26521
26520	26521
6232	26522
26522	26523
26522	26524
26522	26525
20197	26527
7964	26532
7965	26533
26551	26534
26477	26535
26486	26536
8612	26537
8162	26546
26744	26551
1055	26552
6125	26553
6300	26565
8513	26569
6176	26571
1969	26572
30172	26576
8240	26580
26594	26582
26582	26587
26595	26587
26479	26588
6176	26589
6229	26590
26597	26591
26598	26592
13008	26593
29818	26594
26582	26596
6177	26597
14830	26599
8587	26600
26508	26615
1126	26617
21607	26618
14996	26619
26618	26619
14997	26620
26618	26620
6177	26621
8353	26622
8353	26623
26622	26624
31263	26625
16342	26626
6270	26628
6270	26629
26587	26630
26596	26630
26628	26630
26596	26631
26629	26631
26638	26631
6272	26632
26630	26632
6272	26633
26631	26633
6271	26634
6271	26635
6273	26636
6273	26637
26582	26638
23726	26642
26642	26643
23726	26644
26644	26645
8382	26555
6342	26646
6340	26659
6229	26660
6176	9262
6117	26661
26483	26667
26488	26668
26667	26668
26668	26669
26672	26669
26495	26670
26669	26670
26670	26671
26667	26672
14178	26677
26677	26678
26677	26679
14178	26680
26680	26681
6241	26682
6241	26689
15023	26695
8522	26713
44075	26714
26714	26715
26714	26716
26719	26717
979	26718
21606	26719
1621	26720
6248	26721
6248	26722
6283	26729
26739	26729
6283	26730
26735	26730
6283	26731
26738	26731
6283	26732
26737	26732
6283	26733
26740	26733
6283	26734
26736	26734
18976	26735
18976	26736
18976	26737
18976	26738
18976	26739
18976	26740
18976	26741
6230	26742
6974	26743
6117	26744
22115	26746
26741	26747
6305	26748
6306	26748
6117	26749
6331	26751
6342	26754
1213	26762
26182	26762
21145	26763
30689	26763
16863	26764
30381	26765
6232	26766
8443	26767
27832	26768
8443	26769
8444	26770
30307	26773
8409	26775
26776	26777
35026	26778
26778	26779
14232	26780
26768	26795
36990	26797
21352	26798
26797	26798
37028	26799
26805	26806
26805	26807
26806	26808
26807	26809
26551	26810
6285	26811
6293	26811
26216	26812
26811	26812
6296	26813
6301	26813
6309	26814
6310	26815
6307	26816
6308	26816
6370	26817
14491	26818
14490	26819
6307	18887
6311	18887
23776	26820
23775	26821
15094	26822
10764	26823
26681	26823
20720	26825
6285	26826
6526	26826
1403	26830
14214	26831
21891	26832
21894	26833
26835	26836
26439	26837
26436	26838
8270	26842
26505	26843
15073	26846
22110	26848
26848	26849
30658	26853
30659	26854
6242	26855
26864	26856
13789	26857
26859	26857
26857	26858
13787	26859
26861	26859
26859	26860
13345	26861
26862	26861
14827	26862
26863	26862
6251	26863
13788	26864
26859	26864
656	26867
26871	26872
26871	26873
26873	26874
26873	26875
8222	26876
28496	26878
26932	26889
26889	26890
26889	26891
26891	26892
26891	26893
26891	26894
26891	26895
26891	26896
6253	26897
26932	26897
26897	26898
26932	26899
26899	26900
26899	26901
26899	26902
26899	26903
26945	26904
26888	26905
26905	26906
26906	26907
26906	26908
26908	26909
26908	26910
26908	26911
26908	26912
26908	26913
26905	26914
26914	26915
26905	26916
26916	26917
26916	26918
26916	26919
26916	26920
26947	26921
26888	26922
26922	26923
26922	26924
26922	26925
26923	26926
26923	26927
26926	26928
26926	26929
26926	26930
26926	26931
26926	26934
26924	26935
26925	26936
26925	26937
26925	26938
26949	26939
26925	26940
6253	26941
26941	26942
26942	26943
26902	26944
26944	26945
26920	26946
26946	26947
26938	26948
26948	26949
27587	27588
27586	27589
1282	27599
16443	27636
16442	27637
16441	27638
16441	27654
16442	27655
16434	27687
26712	27703
13142	27722
27722	27723
27735	27739
26135	26278
7662	27756
6479	27784
6426	27797
23428	27804
23428	27805
23428	27806
23428	27807
6426	27809
6432	27810
6427	27811
6431	27812
6436	27813
6434	6435
26186	27832
27789	27857
27855	27860
27852	27861
27854	27862
27853	27863
27856	27864
12581	27865
12581	27866
12581	27867
12581	27868
27877	27869
27878	27870
27879	27871
27859	27872
27857	27873
5834	27874
27875	27876
27858	27880
5988	27918
5990	27918
28168	27929
5986	27963
5994	27964
5256	27984
5228	27985
5210	27986
5297	28002
23448	28055
23435	28056
22752	5640
22746	24380
7456	24378
32409	28069
18401	28070
30833	28070
5770	4498
979	28079
31253	28079
5918	28092
37010	28092
236	28093
23435	28093
4789	28094
5327	28097
5327	28098
28088	28113
54	28114
35527	28114
39107	28115
7661	28131
28139	28138
5975	28146
5960	28149
5960	28150
93	28154
37010	28155
95	28156
23435	28157
37010	28160
23435	28161
5944	28163
23435	28164
28172	28165
28172	28166
28172	28167
313	28170
313	28171
313	28173
28175	28177
28175	28178
28175	28179
5986	28181
5994	28182
27857	28202
27857	28203
18301	28225
40992	28252
23447	28296
23448	28297
18297	28298
6049	28323
28324	28325
28326	28327
28341	28343
1422	28408
22746	5426
8816	28428
28464	28472
28464	28474
28463	28480
6152	28485
7995	28494
22760	28494
14365	28521
14365	28522
14365	28526
5986	28571
28573	28571
23448	28572
28573	28572
23447	28574
23448	28575
6410	28592
14365	28628
14365	28629
14365	28632
14365	28635
14365	28646
28675	28676
16863	28682
5989	28685
28682	28710
28682	28711
20922	28714
28810	28811
28810	28812
28810	28813
1369	28842
14365	28845
22514	28889
22514	28891
28628	28893
28660	28896
28521	28904
14365	28969
14365	28988
14365	29010
28628	29109
8197	29120
8197	29121
22760	29136
29135	29136
22760	29137
29135	29137
29135	29138
29134	29151
29134	29152
29134	29153
28660	29252
8039	29331
2969	29334
8039	29336
8632	29396
8632	29397
21311	29700
28024	29701
29712	29702
29713	29703
29714	29704
18823	29705
26751	29706
2412	29707
26751	29707
2616	29708
2635	29708
2615	29709
2636	29709
29706	29712
29710	29713
29711	29714
26751	29716
30242	29716
14905	29726
674	29728
4786	29729
14943	29730
15841	29732
29734	29735
21233	29737
7947	29742
7941	29743
26313	29744
6238	29754
4338	29778
33210	29795
33212	29796
33211	29797
26279	5792
1171	29805
1171	29806
1171	29807
1171	29808
1171	29809
6431	29822
7015	29833
29833	29834
29833	29835
7015	29836
29839	29840
29839	29841
19033	29842
26721	29843
31772	29847
31772	29848
27735	29850
6202	29852
2806	29853
26551	29854
29852	29855
29852	29856
26599	29857
6176	29858
14830	29859
29859	29860
29860	29861
21606	29862
29716	29863
6331	29864
2812	29865
29867	29865
21607	29866
26618	29867
29866	29867
6479	29872
29872	29873
20776	29879
20776	29880
30265	29881
29881	29882
29867	29884
29867	29885
15048	29886
6232	29899
37461	29904
37461	29905
29898	29908
29898	29909
29898	29910
20999	29912
1550	29913
16261	29916
5804	29922
5804	29923
29927	29928
29931	29932
29931	29933
26848	29938
29939	29940
21145	29941
29943	29941
21160	29942
29939	29943
29938	29944
29938	29945
29941	29946
29944	29947
13788	29951
13788	29952
13788	29953
13788	29954
29954	29955
29953	29956
29952	29957
29951	29958
1423	29959
6389	29960
6389	29961
8161	29961
6391	29962
6391	29963
8161	29963
5836	29965
7994	29969
7994	29970
7994	29971
7994	29975
6422	29981
33783	29982
13353	29987
13353	29989
22111	29990
16260	29995
18871	29998
21146	30008
21146	30009
19593	30020
30023	30024
30023	30025
30022	30026
30022	30027
2567	30037
30038	30040
2812	30042
29867	30042
30042	30043
30044	30046
30043	30050
1546	30058
30065	30066
30065	30067
30065	30071
34255	30094
7784	30098
6201	30111
6217	30112
6217	30113
30108	30118
2412	30141
30039	30142
30038	30143
8530	30147
30146	30147
30146	30148
30147	30149
30148	30149
14000	30150
26878	30151
33154	30157
33165	30161
1378	30166
6229	30167
31188	30167
1355	30168
26573	30169
26718	30170
31235	30170
2613	30171
31189	30171
979	30172
26718	30173
30172	30173
30174	30175
33051	30183
6457	30185
13483	30207
30207	30208
30207	30209
4175	30212
4175	30218
33186	30219
30219	30220
2613	30234
2686	30234
2687	30235
2616	30236
2689	30236
19657	30237
26758	30237
26659	30238
30240	30241
6331	30242
30253	30246
14316	30247
14316	30248
14316	30249
14316	30250
26359	30252
14316	30254
30363	30255
30255	30256
14316	30257
30257	30258
14316	30259
30363	30260
30260	30261
30261	30262
30247	30263
14806	30265
30422	30266
6266	30267
6255	30268
30263	30269
30263	30270
30263	30271
30281	30282
30280	30283
14316	30284
30247	30285
30284	30285
30285	30286
26594	30287
6173	30288
6173	30290
6173	30291
6173	30292
30290	30293
26319	30296
6170	30297
6170	30298
6170	30300
14316	30301
30303	30302
30304	30303
30304	30305
14316	30306
26551	30307
30250	30309
30263	30312
30314	30315
14316	30317
30253	30320
30315	30321
30253	30322
30247	30324
30250	30324
30263	30325
30325	30327
30317	30328
30317	30329
30250	30330
30315	30333
14780	30334
30335	30337
30338	30339
30338	30340
30338	30341
30336	30343
30264	30345
30264	30346
14780	30347
30347	30348
30348	30349
30347	30350
30347	30351
30347	30352
30347	30353
30255	30354
30256	30355
30354	30355
30260	30356
30261	30357
30356	30357
28079	30358
30363	30361
30361	30362
6176	30379
6176	30380
30400	30392
30395	30393
26594	30394
30394	30395
13322	30398
13323	30398
30398	30399
6220	30400
30400	30401
28079	30410
30265	30411
30413	30412
30413	30414
30411	30415
30411	30416
30569	30417
30266	30418
30942	30419
30942	30420
30942	30421
30265	30422
30984	30422
30422	30423
30425	30426
1309	30427
30424	30428
14806	30429
14806	30430
26551	30431
30466	30434
30470	30435
14806	30437
30415	30438
30422	30459
30430	30460
30434	30461
30984	30462
30430	30465
30422	30466
30466	30467
30467	30468
30422	30470
30470	30471
30470	30472
30470	30473
30437	30476
30476	30477
30476	30478
6266	30479
6266	30480
30480	30481
6266	30482
30267	30484
30267	30485
1358	30487
30531	30488
30529	30489
30488	30490
30489	30490
1358	30491
1356	30492
1129	30493
30493	30494
30493	30495
1130	30496
1130	30497
1130	30498
1130	30499
30495	30499
30495	30500
6262	30507
30508	30509
1358	30524
30530	30526
30530	30527
30531	30528
1358	30529
1358	30530
30487	30531
30529	30531
30531	30532
30529	30533
30529	30534
30535	30536
30536	30537
35435	30538
1358	30540
33167	30553
14780	30554
30334	30555
14780	30556
14780	30557
30334	30558
30334	30559
31253	30559
14780	30560
30560	30561
21314	30562
30563	30566
31182	30567
30569	30568
30266	30569
30422	30581
14806	30582
14780	30585
30589	30592
29856	30593
14780	30599
30556	30601
26881	30602
26881	30603
26881	30604
33504	30606
1403	30607
21148	30608
26746	30609
30610	30611
30595	30612
1173	30613
30613	30614
30613	30615
6325	30616
1183	30617
8308	30620
6325	30621
1183	30625
6202	30627
6220	30628
8308	30629
8308	30633
26399	30640
13803	30641
13803	30642
13803	30643
13803	30644
6071	30648
13708	30649
30650	30651
30652	30653
1405	30654
1055	30655
30654	30656
23727	30657
30660	30662
30661	30663
30655	30664
30657	30665
30657	30666
30656	30667
23464	30668
30656	30669
30663	30670
30662	30671
1406	30672
1405	30673
8586	30676
8586	30687
8586	30688
26848	30689
26763	30693
30693	30694
30693	30695
30693	30696
30696	30697
30696	30698
26763	30700
29997	30703
30703	30705
30703	30706
30703	30707
30704	30708
30705	30708
30704	30709
30707	30709
30704	30710
30706	30710
13322	30711
24851	30714
30713	30714
30714	30715
26619	30716
30724	30725
18823	30727
30727	30728
30727	30729
2412	30730
14316	30731
14316	30732
2570	30737
2569	30738
29706	30739
29710	30740
29711	30741
30736	30742
30736	30743
30738	30744
30738	30745
30737	30746
30737	30747
2571	30748
30748	30749
30748	30750
30751	30752
30751	30753
30754	30755
30755	30756
30754	30757
30758	30759
30758	30760
26522	30761
30792	30763
30763	30764
30763	30765
30766	30768
30766	30769
30767	30770
30767	30771
2564	30772
30772	30773
30772	30774
30761	30775
30761	30776
18822	30786
18822	30787
6331	30789
30730	30790
29854	30791
6331	30792
30792	30793
30793	30794
30793	30795
30795	30796
30794	30797
30799	30800
30799	30801
27790	30802
26357	30805
26358	30806
1288	30809
1288	30810
1288	30811
10764	30812
26823	30813
30812	30813
1288	30820
33828	30820
1288	30821
30809	30822
30824	30825
30824	30826
1355	30832
21607	30837
30567	30838
29864	30840
30259	30841
13577	30842
29890	30846
7016	30847
2706	30856
29712	30856
6177	30860
30860	30861
30860	30862
30860	30863
2976	30864
33783	30875
30875	30878
26618	30879
26618	30880
2642	30886
2642	30887
26551	30909
26594	30909
26551	30910
14317	30911
30914	30915
14938	30920
30920	30921
30937	30938
1230	30941
30942	30943
30252	30947
30252	30948
14316	30949
26578	30950
2564	30951
2564	30952
33976	30953
30954	30955
30260	30956
30956	30957
30960	30959
656	30963
30968	30969
14806	30984
22113	30997
22114	30998
30997	30998
30998	30999
22113	31000
22114	31001
31000	31001
31001	31002
8531	31003
31004	31005
31004	31006
14232	31007
1289	31010
31016	31011
1289	31012
1289	31013
1289	31014
1289	31015
1289	31016
1289	31018
1289	31019
1289	31020
1289	31023
31016	31024
31023	31025
31023	31026
31023	31027
31019	31028
31019	31029
31019	31030
1289	31031
31010	31032
31019	31032
31011	31033
31011	31034
31028	31035
31028	31036
31028	31037
31028	31038
31032	31038
31032	31039
31032	31040
31032	31041
31032	31042
31032	31043
31032	31044
31046	31044
31019	31045
31032	31047
31032	31048
31035	31051
31035	31052
31038	31052
31052	31053
31036	31054
31054	31055
31054	31056
31057	31058
31057	31059
31060	31061
31060	31062
31051	31063
31010	31065
31047	31066
31063	31067
31063	31068
31046	31069
31070	31071
31070	31072
31051	31073
31066	31075
31078	31077
31079	31080
31044	31081
31044	31082
31077	31083
31080	31084
31076	31085
31030	31086
31081	31086
31077	31087
31080	31088
1289	31089
31089	31090
31090	31091
31091	31092
1130	31095
31019	31097
29866	31102
31102	31103
13358	31105
31104	31105
21607	31107
23315	31110
31111	31112
2558	31113
31111	31114
6331	31115
29870	31119
30739	31121
33783	31122
1169	31125
2412	31127
2558	31129
33783	31130
33784	31133
33784	31134
6274	31135
6274	31136
31130	31137
6274	31138
6274	31139
6274	31140
2412	31148
2412	31151
2558	31152
30235	31153
2620	31154
29707	31155
31157	31158
2749	31159
39333	31160
13363	31165
1039	31168
1039	31169
6331	31176
2553	31177
13572	31178
31178	31179
31178	31180
31178	31181
14806	31182
14828	31183
31183	31184
31183	31185
13345	31186
33784	31187
1530	31191
6805	31192
33052	31199
33088	31201
33087	31204
33085	31205
33271	31210
32134	31212
33169	31215
33263	31223
31236	31237
22115	31241
33783	31242
31242	31243
31243	31244
31245	31244
1288	31245
31244	31246
30739	31247
2604	31248
31248	31249
31248	31250
31250	31251
31250	31252
13577	31254
6390	31255
13359	31256
31256	31257
19939	31260
30493	31261
14066	31267
8287	31268
14067	31268
14065	31269
5947	31273
5947	31274
15872	31276
23188	31291
23188	31292
23188	31293
23188	31294
23188	31295
23188	31296
23188	31297
6357	31298
5961	31309
14109	31313
13319	31322
1422	31325
28733	31332
19012	31333
29837	31335
7023	31339
20769	31339
6232	31346
26524	31347
13354	31348
31346	31350
31346	31351
31350	31352
31350	31353
13444	31354
31349	31354
13443	31355
31349	31355
13413	31356
31348	31356
13410	31357
31348	31357
31357	31358
31354	31359
13412	31360
31357	31360
13445	31361
31354	31361
14274	31390
15196	31413
29862	31422
18299	31432
6242	31436
14000	31436
6242	31437
14000	31437
37011	31463
34426	31467
5249	31468
30914	31476
30915	31477
31476	31477
21182	31485
32134	31486
19607	31494
1309	31507
74	31529
74	31532
31478	31533
31478	31534
4728	31535
74	31546
16348	31556
21437	31572
17890	31573
312	31574
45613	31582
45613	31583
54	31597
54	31598
1559	31618
1559	31619
31620	31623
4835	31627
8346	31628
591	31631
13040	31637
21763	31638
35922	31642
14046	31643
6138	31668
14365	31672
39320	31681
10665	31688
10665	31689
10665	31690
22776	31695
22775	31696
8052	31712
7951	31713
26319	31727
6170	31728
6168	31729
6118	31760
6125	31761
1213	31811
22192	31829
8567	31830
8164	31831
21792	31852
4212	31853
4212	31860
33054	31866
4604	31894
4604	31895
4593	31900
13282	31912
31919	31920
31919	31921
5886	31933
45969	31935
33162	31939
4212	31947
31948	31949
31948	31952
31948	31953
31953	31954
31953	31955
16378	31961
16378	31962
16378	31963
16378	31964
26528	31978
36123	32002
23259	32034
606	32044
606	32045
606	32046
15143	32049
21624	32074
4884	32086
13309	32094
7666	32098
6682	32101
15312	32102
14194	32112
27832	32118
18850	32119
1545	32139
32139	32140
32139	32141
1546	32142
32140	32142
14152	32148
32192	32191
1355	32193
13991	32240
18393	32241
7798	32243
20778	32271
13991	32285
21148	32295
15006	32307
33155	32325
22126	32344
14165	32351
14619	32369
10672	32373
14253	32374
3383	32383
2025	32384
33113	32385
597	32389
15979	32407
6202	32410
22593	32413
14412	32414
14414	32415
606	32427
3383	32445
32478	32479
32480	32481
32482	32483
6162	32506
32507	32508
14794	32509
32507	32509
23318	32536
4212	32544
21186	32546
4593	32563
4593	32564
4593	32565
32573	32569
4617	32582
4735	32592
36131	32602
32607	32608
32607	32609
32607	32610
32611	32612
32640	32641
606	32642
606	32643
21236	32645
21850	32650
32683	32684
21884	32686
5277	32687
565	32690
7661	32697
5288	32713
5310	32714
22759	32726
14969	32733
14970	32734
14969	32737
14970	32738
14970	32739
4761	32746
2976	32759
6687	32760
6685	32761
2980	32762
16454	32784
30172	32791
26823	32797
4649	32799
30788	32800
32811	32812
32841	32846
32843	32861
32844	32862
32876	32879
13791	32922
5256	32952
5258	32953
17065	32973
33323	32981
15461	33020
5807	33021
30978	33022
7997	33037
16113	33064
14797	33065
1402	33148
6351	33148
15017	33149
14107	33233
32976	33234
33244	33245
14127	33246
36759	33265
565	33314
193	33314
565	33315
565	33316
565	33317
565	33318
33322	33323
33322	33324
2558	33334
36128	33357
36758	33363
18511	33369
16055	33380
45295	33392
35001	33393
35001	33394
20876	33402
7666	33404
39029	33405
33406	33407
363	33435
33028	33436
33028	33437
8197	33475
4781	33489
15841	33492
14232	33495
14232	33496
29702	33497
29702	33498
33499	33501
26865	33502
33503	33504
33505	33506
33505	33507
22598	33516
22598	33517
33028	33519
11404	33529
33534	33535
33535	33536
5875	33569
33572	33574
33572	33575
33572	33576
5221	33608
4789	33617
18175	33627
18177	33627
35944	33628
564	33634
33647	33648
5335	33681
2985	33682
33958	33683
26594	33697
1355	33700
34324	33705
17888	33711
15953	33724
7661	33728
5427	33735
33748	33746
33749	33747
33646	33753
36656	33758
15769	33770
23426	33770
14440	33774
33772	33774
22448	33780
33780	33782
1127	33783
30809	33785
33785	33786
33785	33787
1288	33788
33888	33790
33788	33791
16663	33792
33794	33793
16663	33794
26804	33795
33891	33797
33918	33798
33796	33800
33796	33801
33850	33802
33850	33803
33799	33804
33831	33805
33799	33806
30809	33808
33788	33808
33800	33811
33800	33812
33857	33813
33813	33815
33813	33816
33808	33817
33808	33818
1288	33824
33808	33825
33808	33826
33788	33827
33783	33828
33808	33829
33808	33830
1288	33831
33831	33832
1288	33833
1288	33834
1288	33835
1288	33836
33834	33837
33834	33838
33811	33842
33810	33843
33809	33844
33844	33845
33803	33846
33806	33847
33806	33848
33806	33849
1288	33853
1288	33854
1128	33855
33788	33856
33866	33857
33867	33857
33860	33858
33858	33859
33827	33861
33859	33861
33937	33862
33935	33863
33807	33864
33850	33865
33791	33866
33791	33867
33808	33867
30495	33871
33872	33871
34062	33872
1129	33878
16663	33881
33794	33882
33881	33882
33882	33883
33794	33888
33888	33889
1288	33890
26804	33893
33892	33894
33893	33895
33894	33896
33893	33897
33894	33898
26804	33899
33892	33900
33788	33901
1288	33906
33906	33907
33907	33908
33908	33909
33854	33910
6229	33911
30307	33911
33855	33912
33856	33913
33854	33914
33855	33915
1129	33917
33849	33919
33851	33920
33832	33921
33789	33922
33790	33923
33842	33924
33849	33925
33918	33926
14785	33927
33891	33928
33832	33929
33789	33930
33790	33931
33851	33932
33842	33933
33858	33934
33799	33935
33935	33936
33796	33937
33937	33938
33860	33939
33854	33940
33855	33941
1289	33942
33951	33946
33944	33947
33945	33948
33943	33950
33950	33951
33949	33952
33952	33953
30381	33954
33955	33957
33957	33958
33956	33959
33866	33963
33964	33965
33965	33966
33783	33968
33968	33969
33968	33970
33969	33971
33970	33972
1288	33973
33973	33974
20468	33975
33968	33976
33968	33977
1128	33981
1128	33982
1128	33983
1128	33984
1128	33985
1128	33986
1128	33987
1128	33989
1128	33990
1128	33991
1128	33992
1128	33993
34015	33997
34015	33999
34014	34000
34000	34001
34018	34002
33989	34003
34000	34004
33999	34005
34048	34005
33985	34006
33999	34007
34016	34008
34016	34009
34008	34010
34008	34011
34014	34012
34003	34018
34000	34019
34019	34020
34019	34021
34003	34023
34024	34025
34024	34026
34027	34028
34027	34029
33985	34030
34030	34031
34030	34032
34002	34033
34033	34034
34033	34035
34013	34036
34037	34038
34037	34039
33989	34040
34002	34041
34018	34043
33992	34044
34044	34045
34045	34046
1128	34047
34017	34048
34049	34050
33989	34051
2743	34052
33989	34052
34003	34053
34003	34054
34018	34055
34054	34055
34055	34056
34052	34057
34052	34058
34052	34059
34052	34060
34013	34061
34052	34061
34052	34062
34052	34063
33872	34064
34014	34066
34016	34067
34061	34068
34061	34069
34066	34070
34067	34071
34051	34072
34068	34072
34065	34073
34066	34074
34015	34075
34067	34076
34052	34088
34090	34089
33792	34090
34023	34091
34091	34092
34090	34093
3101	34098
20710	34104
34104	34105
34104	34106
34138	34137
34137	34139
34156	34155
2985	34156
99	34172
99	34173
23218	34178
15455	34179
17118	34181
17118	34183
5955	34184
5955	34185
15459	34187
15459	34188
101	34190
101	34191
15457	34193
15457	34194
15458	34196
15458	34197
15456	34199
15456	34200
5957	34202
5957	34203
100	34205
100	34206
17120	34208
17120	34209
17119	34211
17119	34212
15453	34214
15453	34216
15454	34217
15454	34219
28423	34220
28423	34221
28423	34222
17121	34223
17121	34225
15452	34229
15452	34231
32984	34232
32984	34234
5956	34235
5956	34237
15460	34238
15460	34240
32983	34241
32983	34243
22690	34249
22675	34250
22602	34252
21255	34263
33272	34264
7015	34268
4212	34284
34286	34287
34287	34288
14173	34293
26552	34301
2728	34307
4593	34308
33032	34317
34320	34319
1355	34320
27740	34322
1402	34323
34324	34325
9607	34333
17170	34337
34340	34339
16463	34342
16464	34343
16465	34344
16466	34345
16467	34346
16468	34347
16469	34348
16444	34349
16445	34350
16446	34351
16447	34352
16448	34353
16449	34354
16450	34355
16451	34356
16452	34357
16453	34358
16455	34359
16456	34360
16457	34361
16458	34362
16459	34363
16460	34364
16461	34365
16462	34366
32573	34367
34368	34369
34370	34371
34372	34373
34374	34375
34376	34377
34378	34379
34380	34381
16437	34382
16438	34383
16440	34384
18138	34385
34386	34387
34388	34389
34390	34391
34392	34393
34394	34395
32409	34397
34398	34399
34400	34401
34402	34404
34405	34407
34414	34415
5226	34431
312	34505
34511	34515
34522	34531
34531	34535
34522	34539
34522	34540
34522	34541
34541	34545
971	34554
34558	34559
34559	34563
14365	34577
28521	34578
34522	34580
34558	34703
34558	34707
12434	34860
12451	34870
12451	34871
12451	34872
12451	34873
20662	34874
12453	34875
12432	34884
8211	34885
26388	34885
26439	34890
26520	34944
26483	34968
8921	34991
26388	34993
19429	35007
8513	35008
26667	35009
13991	35017
26776	35026
26667	35045
31713	35052
8033	35055
8457	35059
26477	35065
22180	35107
13277	35108
22180	35110
35116	35115
29873	35116
988	35123
988	35124
35114	35125
35114	35126
35137	35127
35130	35128
35138	31143
35140	35129
35177	35134
8809	35136
29814	35141
2468	35142
35139	35150
31143	35152
35128	35153
35129	35154
35150	35155
31143	35156
35150	35157
35129	35158
35128	35159
31141	35172
35173	35178
35174	35179
35176	35180
35175	35181
30274	35201
2420	35210
1171	35236
8308	35236
35236	35237
35236	35238
30612	35241
13794	35244
13794	35245
35244	35246
35245	35247
26436	35281
33965	35317
26848	35325
21145	35326
35325	35326
14940	35327
35327	35328
35327	35329
35337	35333
5784	35335
5784	35337
5284	35338
16211	35341
14291	35344
35342	35345
3383	35346
29899	35348
29899	35349
33911	35354
6202	35356
26454	35356
35356	35357
35355	35360
300	35367
300	35368
300	35371
300	35374
5900	35379
35379	35380
35383	35385
26385	35387
26385	35388
26385	35389
1521	35392
23447	35393
1204	35397
1309	35398
1309	35400
16433	35416
30530	35435
23447	35441
1223	35457
1223	35463
1223	35464
1223	35465
1223	35466
35466	35467
35466	35468
1204	35471
1204	35472
6300	35473
6300	35474
6300	35475
6300	35476
6300	35477
33225	35514
39107	35526
39108	35527
5840	35543
26388	35596
35596	35597
35596	35598
35596	35599
35596	35600
35602	35603
1311	35604
1311	35605
21834	35606
35606	35607
35607	35608
35607	35609
35606	35610
8033	35611
35612	35613
18388	35623
35626	35624
26438	35656
35760	35657
29998	35703
162	35705
20776	35712
8582	35713
6110	35714
15985	35718
15417	35731
14458	35746
35754	35755
92	35794
6254	35798
24889	35800
35805	35804
34427	35821
10672	35825
35760	35826
35827	35828
5220	35829
14068	35834
14068	35835
14068	35836
15079	35840
15079	35841
6392	19729
23475	35848
35848	35850
35849	35851
35933	35853
16969	35855
4670	35858
19671	35864
44157	35872
35874	35875
35874	35876
16011	35885
16011	35886
37393	35890
35893	35894
21652	35896
37393	35897
44578	35898
44577	35903
44577	35904
44577	35905
5840	35910
14404	35920
35935	35934
26781	35935
44331	35938
4708	35940
23620	35951
4861	35962
26510	35975
363	35979
5855	35981
4593	35995
4593	35996
19634	36018
36018	36019
36018	36020
19634	36021
27740	36027
37400	36028
30173	36031
44075	36031
30664	36038
1498	36039
1498	36040
37265	36041
37251	36042
44048	36044
1402	36049
1402	36050
1402	36051
36042	36052
36044	36053
1402	36054
36041	36055
1402	36056
36043	36056
34426	36086
1545	36103
36124	36125
3370	36127
3370	36131
1357	36139
1357	36140
5909	36148
7893	36153
7893	36154
19872	36160
19872	36161
19872	36162
19872	36163
19872	36164
19872	36165
19613	36166
33085	36167
21235	36168
36144	36169
36145	36170
36174	36175
36247	36248
36127	36250
36127	36280
1247	36284
10665	36286
15845	36290
1216	36312
36328	36330
36329	36331
10630	36332
37400	36332
13571	36338
33263	36339
4752	36353
34426	36359
9336	36372
21763	36372
26797	36373
20209	36375
18402	36393
36404	36405
37172	36406
5826	36408
26822	36408
4734	36409
4734	36410
36410	36411
36410	36412
4851	36439
32100	36449
32100	36450
13991	36455
33039	36455
26575	36458
19617	36459
19617	36460
29994	36460
45820	36462
10908	36471
22778	36491
36496	36497
5775	36499
5774	36501
5774	36502
36519	36513
36519	36514
36519	36515
36519	36516
36519	36517
36519	36518
8346	36532
13280	36541
42575	36551
42575	36552
17853	36554
17853	36555
435	36557
435	36558
4212	36570
36467	36571
36467	36572
4611	36580
36535	36605
36536	36606
36535	36607
32547	36617
22018	36632
7680	36633
7680	36634
7664	36657
33089	36658
36651	36659
15399	36660
34765	36670
12440	36677
36677	36678
12440	36679
22018	36681
36682	36685
36682	36686
12405	36687
36682	36689
36682	36690
36682	36691
36682	36692
36682	36693
36682	36694
12407	36695
12407	36696
12407	36697
36697	36698
36696	36699
36677	36705
5228	36711
36716	36719
36717	36721
36718	36722
26754	36734
42486	36740
4773	36743
4773	36744
9341	36745
9341	36746
162	36752
162	36753
15768	36755
15769	36756
4751	36758
4751	36759
14797	36760
14797	36761
14798	36762
14798	36763
15768	36764
15769	36765
14607	36768
14140	36769
8365	36770
4770	36771
7915	36775
29732	36776
29732	36777
4728	36779
4728	36780
15010	36781
36782	36783
36784	36785
22720	36789
36789	36790
37002	36793
10733	36795
10733	36796
20084	36814
20085	36815
36847	36844
31780	36846
4582	36853
37209	36874
37209	36875
12447	36877
36395	36882
37265	36898
37400	36900
13358	36947
30172	36949
7784	36952
8110	36953
22115	36970
5944	36980
21329	36982
5321	36984
15044	36986
36747	36989
10815	36992
4706	36996
4708	36997
32296	37000
36652	37001
18959	37003
7922	37004
32848	37009
33583	37023
36990	37027
26797	37028
36990	37030
37030	37031
21352	37032
37030	37032
21763	37033
9410	37036
36991	37040
23507	37041
37040	37041
36991	37042
33084	37046
14607	37047
357	37049
37055	37056
16260	37057
14172	37058
45307	37063
37074	37078
21352	37085
21352	37086
23507	37087
26798	37088
37519	37089
37041	37090
37032	37091
37042	37092
37039	37093
36372	37094
14967	37095
36372	37096
35117	37106
35127	37109
35118	37110
35127	37111
35118	37112
15986	37119
37432	37123
37094	37126
23507	37133
37034	37141
26798	37142
37032	37143
37041	37144
37519	37145
37092	37146
37093	37147
37141	37148
37094	37149
37027	37151
37151	37152
15986	37153
21671	37162
37431	37162
37431	37163
37440	37163
37166	37164
15476	37172
12434	37191
37093	37195
37092	37196
37141	37202
37151	37204
37189	37209
37189	37210
35975	37217
16376	37218
4475	37219
34327	37239
34327	37240
34327	37246
5795	37248
34327	37249
6247	37251
6247	37265
10525	37266
10125	37276
37369	37281
255	37283
37467	37287
9410	37288
37330	37335
37036	37342
37036	37343
37514	37360
37514	37361
37360	37362
37360	37364
27740	37368
27740	37369
37368	37383
37369	37384
35997	37389
35997	37390
4850	37391
26744	37393
37395	37394
32210	37397
10524	37398
36990	37419
36991	37420
6110	37427
37400	37428
37434	37435
27740	37456
27740	37457
6110	37461
36990	37465
36991	37466
36991	37467
20198	37485
20198	37486
5944	37491
37502	37501
4708	37502
16135	37514
37040	37516
23507	37519
37467	37519
37432	37528
6110	37533
32640	37606
37605	37606
22694	37607
39108	37624
33569	37625
39108	37626
7834	38679
4750	38723
255	38734
4610	38747
15118	38747
13587	38752
4723	38759
16910	38763
38783	38784
38783	38785
38783	38786
15188	38832
28545	38853
6177	38872
38873	38874
6203	38875
38899	38898
14440	38903
15043	38908
33149	38917
10733	38931
10733	38933
38952	38964
16260	38969
16260	38970
1498	39000
39000	39001
33582	39005
33582	39006
16052	39008
7809	39018
39018	39019
7809	39020
4795	39022
4795	39023
4795	39024
39018	39025
39027	39028
13040	39029
4882	39068
31792	39079
31791	39080
32013	39115
32013	39118
5783	39119
15548	39128
36174	39130
13214	39131
41870	39179
2467	39207
39225	39226
39225	39227
22806	39262
39274	39275
39278	39277
36991	39296
6248	39308
39307	39308
19775	39352
6201	39429
2546	2548
1128	39530
33984	39534
34013	39535
31235	39550
19910	39770
2558	40045
36128	40338
32100	40339
33437	40356
6783	40359
20700	40360
5050	40401
33808	40454
31032	40455
34052	40456
14194	40457
26522	40475
33279	40505
33085	40506
33085	40507
33279	40508
33279	40509
6331	40522
2980	40552
20035	40563
34324	40568
20068	40652
23511	40656
14414	40677
5872	40783
5872	40784
14000	40824
8473	40829
8473	40830
6177	40840
14403	40889
8288	40997
30172	41000
664	41195
16004	41213
18197	41214
6125	41355
26566	41379
6687	41384
5228	41400
26552	41542
21351	41543
36408	41563
36408	41564
32797	41565
6242	41566
23227	41570
23227	41571
23227	41572
23227	41573
23227	41574
23227	41575
23227	41576
23227	41577
17065	41593
17065	41594
17065	41595
17065	41596
17065	41597
23228	41604
23228	41605
23228	41606
23228	41607
23228	41608
23228	41609
17065	41610
23316	41623
36419	41631
36419	41632
1223	41636
14970	41637
45266	41644
6242	41654
23223	41673
23223	41674
23224	41675
23224	41676
23217	41677
23217	41678
23218	41679
315	41685
23248	41693
23248	41694
20172	41706
45504	41714
36236	41718
334	41761
4735	41766
4728	41767
16416	41768
36458	41812
669	41837
21882	41867
18429	41881
29916	41888
26575	41889
29842	41890
36476	41922
36477	41923
36478	41924
36479	41925
36480	41926
36481	41927
36482	41928
36483	41929
6383	41937
19587	41967
14403	41988
26865	41993
33395	42022
31462	42025
45295	42143
19587	42171
5226	42211
42210	42212
5226	42213
42210	42214
42210	42216
5226	42217
42210	42218
5226	42219
42210	42220
5226	42221
42210	42222
5226	42223
42210	42224
5226	42225
42210	42226
26524	42284
28168	42285
312	42286
20194	42313
20709	42346
8705	42370
4795	42380
28138	42381
45535	42446
45571	42575
6251	42600
28225	42620
6800	42676
42210	42683
42210	42689
5891	42694
42695	42696
42695	42699
1041	42757
6687	42773
28114	42781
15977	42782
15023	42835
16774	42873
16774	42874
14414	42912
9200	42947
32884	42947
9201	42948
32886	42948
9202	42949
32885	42949
29726	42962
42932	42967
103	43024
103	43025
104	43026
104	43027
33051	43035
9398	43260
20709	43261
18940	43263
37251	43266
26679	43275
14178	43276
13402	43320
26599	43321
18850	43353
32730	43356
14895	43405
15143	43462
20234	43571
20234	43572
36391	43575
45266	43689
315	43690
4833	43703
672	43840
13135	43859
14828	43881
26863	43881
32640	43912
31478	43951
33136	43953
18429	43991
14452	44000
37605	44001
44008	44006
44008	44007
45892	44022
42601	44023
22694	44043
42210	44047
14828	44053
29895	44073
23205	44117
6242	44125
14828	44135
44135	44140
20041	44164
10665	44224
4728	44290
2403	44301
54	44308
37438	44315
18870	44325
46038	44371
37118	44383
6128	44384
6128	44385
2420	44437
6502	44453
5872	44473
2610	44501
16055	44510
7680	44535
672	44576
37393	44577
14307	44604
14297	44612
33868	44659
17119	44666
15457	44667
8445	44684
18195	44691
5957	44692
8473	44773
31467	44903
37309	44913
21381	44924
45407	44929
44929	44930
26797	45145
34426	45155
36385	45158
36375	45165
36341	45168
36341	45169
8513	45188
8513	45189
4212	45190
15137	45193
8780	45198
4756	45200
8203	45206
14821	45207
14821	45208
18402	45224
33258	45225
45207	45229
8240	45237
20776	45238
1250	45245
22117	45248
19607	45255
31772	45259
26822	45263
33263	45269
5335	45270
36289	45278
4212	45279
45227	45281
33084	45296
45190	45301
22117	45302
22117	45303
36656	45307
4212	45332
13283	45350
14596	45356
23619	45376
34192	45384
5380	45388
4212	45394
10126	45407
165	45426
31780	45433
31780	45435
4751	45441
17400	45442
4786	45443
120	45453
21607	45493
34427	45494
4212	45501
236	45504
4212	45507
592	45532
16823	45534
1596	45536
14305	45563
8394	45570
9336	45571
36497	45572
21663	45578
21761	45583
36991	45584
21761	45585
606	45592
34426	45607
23477	45608
680	45609
14403	45612
42210	45614
15195	45632
31900	45669
23435	45677
34427	45680
20876	45684
35975	45684
45693	45694
28160	45704
4751	45710
8365	45726
16823	45734
26510	45738
14403	45740
14045	45764
5786	45774
26304	45777
16919	45778
160	45779
4760	45780
161	45781
5784	45791
5786	45792
5784	45793
337	45794
26304	45795
337	45796
45779	45797
45780	45798
45781	45799
5266	45804
27740	45813
45820	45821
45820	45822
36462	45823
36462	45824
32730	45835
14038	45837
29734	45849
14154	45850
36173	45851
4828	45855
1636	45864
9492	45867
9492	45871
16471	45875
4212	45880
16422	45881
14805	45890
23476	45895
36496	45895
19617	45906
35527	45911
10125	45920
21884	45920
21768	45936
4613	45962
15405	45973
4617	45975
4617	45976
33088	45979
28156	45990
9043	45997
9043	45998
13291	45999
31620	46010
36446	46010
4597	46013
5990	46015
15845	46030
5944	46038
32454	46040
6128	46047
19617	46051
29895	46363
46366	46382
1238	46591
669	46751
30494	46760
30494	46762
669	46769
28023	46782
34135	46812
21098	46824
14253	46836
5855	46837
33263	46838
2577	46854
46849	46857
5859	46876
34135	46878
28023	46881
33783	47073
31137	47074
8531	47254
6242	47323
19808	47340
