b0021	b0022	b0264	b0274	b0988	b1893	b0265	b1894	b3444	b3445	b0275	b4516
b0023	b0169	b0436	b0884	b0911	b1088	b1089	b1203	b1716	b1717	b2185	b2606	b2609	b3065	b3165	b3185	b3186	b3230	b3231	b3260	b3261	b3294	b3296	b3297	b3298	b3299	b3301	b3302	b3303	b3304	b3305	b3306	b3307	b3308	b3309	b3310	b3311	b3312	b3313	b3314	b3315	b3316	b3317	b3318	b3319	b3320	b3321	b3341	b3342	b3636	b3637	b3703	b3704	b3936	b3983	b3984	b3985	b3986	b4200	b4201	b4202	b4203	b3300	b0170	b2607	b2608	b3295	b3339	b3340	b3590	b3980	b3987	b0171	b3734	b3736	b0910	b4059	b4506	b0474	b3735	b2597	b3988	b1274	b1718	b2171	b2543	b3067	b3168	b3169	b3170	b3871	b3357	b4147	b3732	b3591
b0361	b0360	b1403	b1402	b2860	b1996	b1997	b4272	b4273	b2861	b3044	b3045
b3461	b0407	b0098	b2610	b3175	b3464	b3705	b3981	b0405	b0406	b0408	b0409	b3609	b2239	b2240	b2241	b2243	b3926	b3927	b2242	b3426	b3608	b3462	b3463	b3610	b4557	b3783	b3982
b0413	b0414	b0415	b0416	b1277	b3041	b0417	b0418	b4161	b2560	b1278	b4160	b4162
b0041	b0042	b2286	b0071	b0072	b0073	b0074	b1800	b1094	b0726	b0727	b1378	b3731	b3733	b2323	b0306	b0307	b0308	b0318	b0319	b0320	b0321	b0424	b0428	b0429	b0430	b0431	b0432	b0724	b0721	b0722	b0723	b0733	b0978	b2277	b2282	b3738	b2276	b2287	b0518	b0520	b4572	b0521	b0728	b0729	b1422	b1611	b1612	b2285	b3962	b4153	b4154	b1415	b3528	b4122	b2283	b2284	b4152	b4151	b1136	b3236	b0734	b0735	b0979	b4515	b0869	b0870	b0964	b4211	b1109	b1656	b2281	b2463	b2488	b3908	b1496	b1387	b2149	b2150	b1479	b1494	b1495	b1697	b1698	b2148	b2151	b2210	b2278	b2279	b2280	b2288	b2484	b3527	b2770	b3152	b3153	b2481	b2482	b2483	b2486	b2487	b2489	b2490	b2485	b2491	b2769	b3003	b3737	b3739	b4123	b4212
b0081	b0082	b0083	b0087	b0088	b0089	b0093	b0094	b0084	b0085	b0086	b0090	b0091	b0149	b0635	b0092	b0095	b0890	b3933	b0633	b0634	b0636	b0637	b3019	b3030	b3031	b3032	b3033	b3034
b1095	b0736	b0737	b0738	b0739	b1090	b0740	b0742	b0741	b1091	b1092	b1093	b1288
b0150	b0151	b0152	b1252	b3005	b3006	b0153	b0588	b0589	b0590	b0592	b0855	b0857	b0914	b1102	b1124	b1126	b3450	b4035	b4288	b4289	b4287	b0697	b0158	b1711	b3966	b0197	b0198	b0199	b3661	b0583	b0586	b0594	b0595	b0584	b0585	b0593	b0596	b2155	b4511	b4567	b0597	b0805	b0694	b0695	b0696	b0698	b0804	b0854	b0856	b1125	b1709	b3451	b3452	b4032	b4033	b0885	b0886	b0887	b0915	b0917	b0918	b1123	b3409	b4291	b4367	b1452	b1710	b3408	b3410	b4034	b4036	b3418	b3449	b3453	b3748	b3749	b3750	b3751	b3752	b3753	b3937	b4293	b4037	b4290	b4292
b0329	b2672	b0384	b1051	b1188	b1783	b2080	b3361	b3362	b0812	b0435	b0453	b0871	b4376	b0606	b0605	b0888	b1732	b0753	b1259	b1482	b2809	b0897	b1003	b1004	b1480	b1724	b1739	b1836	b1953	b1967	b2097	b2266	b2665	b3012	b3097	b3098	b3555	b1646	b1784	b1896	b1897	b2464	b2465	b0880	b0953	b1205	b1376	b3049	b3781	b1197	b1258	b1795	b1449	b1678	b1050	b1810	b1955	b3239	b3494	b1257	b1661	b3073	b4107	b2135	b3024	b3099	b3100	b4127	b3448	b4126
b0779	b0142	b0143	b0144	b3164	b2779	b0403	b3416	b0485	b0486	b1492	b1493	b3506	b3511	b3512	b3517	b0755	b1767	b0687	b0688	b2926	b3080	b3417	b3428	b3432	b3916	b3919	b4025	b4167	b2518	b3612	b4395	b1913	b3813	b4058	b3510	b1084	b3780	b1447	b1448	b3509	b1854	b1676	b1723	b4232	b1768	b1779	b1780	b1806	b1807	b3064	b4168	b1867	b1868	b1912	b1914	b2786	b1960	b1961	b4170	b2627	b2628	b3407	b2733	b2927	b2925	b3079	b3430	b3403	b3956	b3431	b3429	b3441	b3516	b3515	b3614	b3613	b4166	b4169	b4171	b4172	b4173	b4174	b4175
b0828	b0829	b0830	b0831	b2425	b2752	b0832	b2422	b1006	b1007	b1008	b1009	b1010	b1011	b1012	b2750	b2763	b1287	b2423	b2751	b2762	b2764	b3917	b1729	b2012	b2013	b2414	b2421	b3607	b2424	b4214
b1310	b1311	b1312	b1313	b1314	b1316	b1315	b1317
b0894	b0895	b0896	b1588	b1591	b0996	b0997	b0998	b1587	b1589	b1590
b0958	b1848	b2616	b2699	b1602	b1603	b2615	b1847	b2698
b1682	b1679	b1680	b1681	b1683	b1684
b3172	b3960	b0273	b0860	b2818	b3958	b3959	b4254	b0462	b0463	b3035	b2470	b0892	b0861	b0862	b0863	b0864	b0878	b0879	b0891	b1116	b1118	b1209	b3191	b3192	b0893	b1113	b1743	b1846	b1117	b1119	b1208	b2074	b2075	b2076	b2077	b2078	b2079	b3359	b3266	b3514	b3957	b3193	b3195	b3194	b3265	b3513
b2557	b0032	b0033	b0512	b0945	b1062	b1281	b2873	b3642	b4245	b0337	b4244	b0114	b0115	b0116	b0823	b0903	b3114	b3951	b2903	b2904	b2905	b0336	b2497	b0355	b0356	b0357	b1241	b2154	b0522	b0523	b2312	b2499	b4006	b0528	b0529	b1131	b2551	b4005	b0824	b0904	b2498	b1132	b1133	b1134	b1135	b1478	b2453	b2455	b3589	b1282	b1849	b2500	b2313	b2476	b2454	b2456	b3113	b3115	b3116	b3117	b3953	b3952	b4243	b4246
b0296	b1973	b1856	b1857	b1858	b1859
b1070	b1071	b1072	b1073	b1074	b1075	b1078	b1082	b1083	b1881	b1882	b1886	b1888	b1889	b1921	b1922	b1923	b1924	b1925	b1944	b1076	b1077	b1079	b1081	b1938	b1939	b1940	b1943	b1945	b1946	b1947	b1080	b1942	b1937	b1941	b1926	b1880	b1883	b1885	b1887	b3525	b1884	b1890	b1194	b1421	b1878	b1879	b3210	b4355	b3072	b1948	b1949	b1950	b4110	b4109
b0077	b0078	b3670	b3769	b3772	b3671	b0674	b2957	b3212	b3744	b0852	b0928	b1761	b2021	b2290	b3213	b4054	b1260	b1261	b1262	b1263	b1264	b2025	b2022	b3360	b2147	b1812	b1813	b2019	b2020	b2023	b2024	b2026	b2146	b3572	b3770	b2468	b2878	b2879	b2880	b2881	b2887	b2945	b2946	b2947	b3771
b0007	b0333	b0720	b0118	b1276	b3846	b0221	b0334	b0335	b4069	b1388	b1389	b1390	b1391	b1392	b1393	b1394	b1395	b1396	b1397	b1398	b2341	b2306	b2307	b2308	b2309	b2310	b2342	b3845	b4068	b4067
b2458	b2457	b2459	b2460	b2461	b2462
b1121	b1122	b2304	b2480	b2778	b2479
b1713	b2507	b0049	b0050	b0051	b0052	b0053	b0054	b1835	b2474	b3166	b3179	b3289	b3594	b4475	b0177	b3199	b3200	b4261	b4262	b0104	b2780	b0120	b0121	b4306	b0125	b0238	b0469	b3201	b0174	b0175	b0176	b0178	b0179	b2477	b2512	b2595	b1778	b0912	b1712	b1714	b1719	b1876	b2890	b4129	b1777	b1804	b1833	b1834	b2400	b2475	b2478	b2508	b2513	b2514	b2593	b2594	b2617	b2891	b2959	b2960	b3167	b3180	b3196	b3197	b3198	b3202	b3203	b3280	b3281	b3282	b3283	b4473	b3284	b3287	b3288	b3290	b3421	b3593	b4566	b4307
b0311	b0312	b0313	b2529	b2530	b2524	b2525	b2526	b2527	b2528	b2531	b3807	b3895
b0025	b0026	b0027	b0844	b0526	b0642	b4258	b0641	b0060	b2234	b2675	b0180	b0181	b0182	b0183	b0184	b0185	b0954	b2827	b2948	b3640	b3701	b0215	b0470	b0640	b1099	b1183	b1184	b3863	b4259	b4372	b2316	b3255	b3256	b0214	b0471	b0472	b2565	b3700	b3935	b0638	b0639	b2781	b2697	b0921	b0922	b0923	b0924	b3052	b0948	b0949	b0955	b1096	b1097	b1098	b1100	b2231	b3699	b2235	b2676	b2236	b2314	b2315	b2496	b3053	b2553	b2563	b2564	b2566	b2567	b2580	b2673	b2674	b4374	b2782	b2783	b2828	b2949	b3054	b3066	b4052	b3639	b3702	b4373
b3996	b3368	b1223	b1224	b1225	b1226	b1227	b1465	b1466	b1467	b2203	b2206	b1468	b3366	b2194	b2195	b2196	b2197	b2198	b2199	b2200	b2201	b2204	b2205	b2208	b2202	b2207	b3365	b2435	b2436	b3867	b3997	b2538	b2539	b2540	b2541	b2542	b2710	b2711	b4070	b3367	b3803	b3802	b3804	b3805	b3995	b3998	b3999	b4071	b4072	b4073	b4075	b4074	b4076
b2720	b2717	b2718	b2719	b2721	b2722	b2723	b2724	b4079
b0845	b3901	b1690	b2245	b2246	b2801	b2802	b3091	b3128	b3092	b3364
b0972	b0973	b0974	b0975	b0976	b0977	b2994	b2997	b2726	b2727	b2728	b2729	b2730	b2991	b2990	b2992	b2993	b2995	b2996
b3101	b3102
b2048	b2049	b2050	b2051	b2052	b2053	b2054	b2055	b2056	b2057	b2058	b2059	b2060	b3176	b2061	b2062	b3177	b3178
b3322	b3323	b3325	b3324	b3326	b3327	b3328	b3330	b3331	b3332	b3333	b3335	b3329	b3334
b3391	b3392	b3393	b3394	b3395
b3812	b3652	b3822	b0962	b1861	b1860	b1863	b2894	b3183	b3811	b1864	b1865	b1866	b4136	b2892	b2893	b3649	b3162	b3184	b3648	b3650	b3651	b3809	b3810	b4135	b4137
b2032	b2033	b2034	b2035	b2036	b2037	b2038	b2040	b2039	b3786	b2041	b3784	b3785	b3787	b3788	b3789	b3790	b3791	b3792	b3794	b3793
b0002	b0003	b0004	b3940	b4024	b2319	b3433	b0014	b0015	b0473	b1000	b2592	b2614	b3400	b3931	b3932	b4142	b4143	b0439	b3259	b3401	b4013	b0260	b0261	b3828	b4019	b0437	b0438	b0882	b0492	b3687	b0881	b2745	b0999	b1559	b1560	b2318	b2320	b2743	b2744	b2746	b2747	b2748	b3399	b3829	b2942	b3257	b3258	b3686	b3939	b3941
b1733	b1734	b1737	b1735	b1736	b1738	b2716	b2901	b3721	b4090	b3722	b3881	b3882
b2976	b0331	b4014	b3553	b1033	b2977	b2979	b4467	b4468	b4015	b4016
b4092	b4093	b4094	b4095	b4096	b4099	b4100	b4101	b4097	b4098	b4102
b2091	b2093	b2094	b2095	b2096	b4193	b4304	b3577	b3578	b3579	b3580	b3581	b3582	b3583	b4196	b4197	b4198	b4194	b4195	b4565	b4301	b4300	b4302	b4303	b4305
b1101	b2417	b2297	b1621	b2296	b2416	b2415	b2429	b2715	b4240	b2428	b4239
